%TF.GenerationSoftware,KiCad,Pcbnew,5.99.0-unknown-14cba9723f~116~ubuntu20.10.1*%
%TF.CreationDate,2021-02-18T08:56:59+01:00*%
%TF.ProjectId,ncn5100rh-2,6e636e35-3130-4307-9268-2d322e6b6963,rev?*%
%TF.SameCoordinates,PXaa53840PY7be1de0*%
%TF.FileFunction,Paste,Top*%
%TF.FilePolarity,Positive*%
%FSLAX46Y46*%
G04 Gerber Fmt 4.6, Leading zero omitted, Abs format (unit mm)*
G04 Created by KiCad (PCBNEW 5.99.0-unknown-14cba9723f~116~ubuntu20.10.1) date 2021-02-18 08:56:59*
%MOMM*%
%LPD*%
G01*
G04 APERTURE LIST*
G04 Aperture macros list*
%AMRoundRect*
0 Rectangle with rounded corners*
0 $1 Rounding radius*
0 $2 $3 $4 $5 $6 $7 $8 $9 X,Y pos of 4 corners*
0 Add a 4 corners polygon primitive as box body*
4,1,4,$2,$3,$4,$5,$6,$7,$8,$9,$2,$3,0*
0 Add four circle primitives for the rounded corners*
1,1,$1+$1,$2,$3*
1,1,$1+$1,$4,$5*
1,1,$1+$1,$6,$7*
1,1,$1+$1,$8,$9*
0 Add four rect primitives between the rounded corners*
20,1,$1+$1,$2,$3,$4,$5,0*
20,1,$1+$1,$4,$5,$6,$7,0*
20,1,$1+$1,$6,$7,$8,$9,0*
20,1,$1+$1,$8,$9,$2,$3,0*%
%AMFreePoly0*
4,1,46,0.012244,0.500000,2.650000,0.500000,2.650000,-1.500000,1.640000,-1.500000,1.640000,-1.440199,1.624529,-1.441081,1.598829,-1.418152,1.540442,-1.297172,1.393043,-1.073157,1.213683,-0.874410,1.006267,-0.705151,0.775592,-0.569298,0.526981,-0.469985,0.440797,-0.450000,0.719562,-0.450000,0.791872,-0.478886,0.775592,-0.469298,0.727283,-0.450000,0.719562,-0.450000,0.440797,-0.450000,
-0.440631,-0.450000,-0.528419,-0.470436,-0.776949,-0.569965,-1.007509,-0.706018,-1.214775,-0.875449,-1.393963,-1.074348,-1.541173,-1.298492,-1.599456,-1.419524,-1.625137,-1.442475,-1.640000,-1.441640,-1.640000,-1.500000,-2.650000,-1.500000,-2.650000,-0.479457,-0.793035,-0.479457,-0.719478,-0.450000,-0.727095,-0.450000,-0.776949,-0.469965,-0.793035,-0.479457,-2.650000,-0.479457,-2.650000,0.500000,
-0.013683,0.500000,-0.004214,0.500726,-0.001995,0.500000,0.000406,0.500000,0.002628,0.500729,0.012244,0.500000,0.012244,0.500000,$1*%
G04 Aperture macros list end*
%ADD10RoundRect,0.243750X-0.456250X0.243750X-0.456250X-0.243750X0.456250X-0.243750X0.456250X0.243750X0*%
%ADD11R,1.800000X2.500000*%
%ADD12R,1.270000X1.680000*%
%ADD13RoundRect,0.218750X-0.218750X-0.256250X0.218750X-0.256250X0.218750X0.256250X-0.218750X0.256250X0*%
%ADD14RoundRect,0.218750X0.218750X0.256250X-0.218750X0.256250X-0.218750X-0.256250X0.218750X-0.256250X0*%
%ADD15RoundRect,0.218750X-0.256250X0.218750X-0.256250X-0.218750X0.256250X-0.218750X0.256250X0.218750X0*%
%ADD16RoundRect,0.250000X-0.550000X1.412500X-0.550000X-1.412500X0.550000X-1.412500X0.550000X1.412500X0*%
%ADD17RoundRect,0.218750X0.256250X-0.218750X0.256250X0.218750X-0.256250X0.218750X-0.256250X-0.218750X0*%
%ADD18RoundRect,0.250000X-1.425000X0.425000X-1.425000X-0.425000X1.425000X-0.425000X1.425000X0.425000X0*%
%ADD19FreePoly0,270.000000*%
%ADD20FreePoly0,90.000000*%
%ADD21R,0.630000X0.280000*%
%ADD22R,0.280000X0.630000*%
%ADD23R,1.400000X1.200000*%
%ADD24R,0.500000X1.050000*%
%ADD25R,0.500000X0.700000*%
%ADD26R,0.410000X1.600000*%
G04 APERTURE END LIST*
G36*
X35700000Y30036666D02*
G01*
X36950000Y30036666D01*
X36950000Y31286666D01*
X35700000Y31286666D01*
X35700000Y30036666D01*
G37*
G36*
X35700000Y29636666D02*
G01*
X36950000Y29636666D01*
X36950000Y28386666D01*
X35700000Y28386666D01*
X35700000Y29636666D01*
G37*
G36*
X35300000Y30036666D02*
G01*
X34050000Y30036666D01*
X34050000Y31286666D01*
X35300000Y31286666D01*
X35300000Y30036666D01*
G37*
G36*
X35300000Y29636666D02*
G01*
X34050000Y29636666D01*
X34050000Y28386666D01*
X35300000Y28386666D01*
X35300000Y29636666D01*
G37*
D10*
X8900000Y5037500D03*
X8900000Y3162500D03*
D11*
X18600000Y30700000D03*
X18600000Y34700000D03*
X18600000Y38300000D03*
X18600000Y42300000D03*
D12*
X8370000Y49780000D03*
X8370000Y55220000D03*
X10910000Y49780000D03*
X10910000Y55220000D03*
X13450000Y49780000D03*
X13450000Y55220000D03*
X15990000Y49780000D03*
X15990000Y55220000D03*
X18530000Y49780000D03*
X18530000Y55220000D03*
X21070000Y49780000D03*
X21070000Y55220000D03*
X23610000Y49780000D03*
X23610000Y55220000D03*
X26150000Y49780000D03*
X26150000Y55220000D03*
X28690000Y49780000D03*
X28690000Y55220000D03*
X31230000Y49780000D03*
X31230000Y55220000D03*
X33770000Y49780000D03*
X33770000Y55220000D03*
X36310000Y49780000D03*
X36310000Y55220000D03*
X38850000Y49780000D03*
X38850000Y55220000D03*
X41390000Y49780000D03*
X41390000Y55220000D03*
X43930000Y49780000D03*
X43930000Y55220000D03*
X46470000Y49780000D03*
X46470000Y55220000D03*
X49010000Y49780000D03*
X49010000Y55220000D03*
X51550000Y49780000D03*
X51550000Y55220000D03*
X54090000Y49780000D03*
X54090000Y55220000D03*
X56630000Y49780000D03*
X56630000Y55220000D03*
D13*
X55712500Y23600000D03*
X57287500Y23600000D03*
X55712500Y13200000D03*
X57287500Y13200000D03*
D14*
X61187500Y47500000D03*
X59612500Y47500000D03*
X44387500Y25500000D03*
X42812500Y25500000D03*
X48387500Y25500000D03*
X46812500Y25500000D03*
D15*
X16700000Y20700000D03*
X16700000Y19125000D03*
X16700000Y25487500D03*
X16700000Y23912500D03*
D16*
X23700000Y25837500D03*
X23700000Y20762500D03*
D17*
X33600000Y37500000D03*
X33600000Y39075000D03*
D14*
X26987500Y40800000D03*
X25412500Y40800000D03*
X41687500Y32600000D03*
X40112500Y32600000D03*
X31687500Y34400000D03*
X30112500Y34400000D03*
X29487500Y30600000D03*
X27912500Y30600000D03*
D13*
X27912500Y28000000D03*
X29487500Y28000000D03*
D15*
X40200000Y39075000D03*
X40200000Y37500000D03*
D18*
X23300000Y36300000D03*
X23300000Y30500000D03*
D13*
X38112500Y35100000D03*
X39687500Y35100000D03*
D14*
X39487500Y24700000D03*
X37912500Y24700000D03*
D19*
X33550000Y16400000D03*
D20*
X29050000Y16400000D03*
X36200000Y16400000D03*
D19*
X40700000Y16400000D03*
D15*
X33000000Y22387500D03*
X33000000Y20812500D03*
X35600000Y25100000D03*
X35600000Y23525000D03*
X37900000Y22387500D03*
X37900000Y20812500D03*
D13*
X31425000Y24700000D03*
X33000000Y24700000D03*
D14*
X29487500Y32100000D03*
X27912500Y32100000D03*
D21*
X32665000Y32086666D03*
X32665000Y31586666D03*
X32665000Y31086666D03*
X32665000Y30586666D03*
X32665000Y30086666D03*
X32665000Y29586666D03*
X32665000Y29086666D03*
X32665000Y28586666D03*
X32665000Y28086666D03*
X32665000Y27586666D03*
D22*
X33250000Y27001666D03*
X33750000Y27001666D03*
X34250000Y27001666D03*
X34750000Y27001666D03*
X35250000Y27001666D03*
X35750000Y27001666D03*
X36250000Y27001666D03*
X36750000Y27001666D03*
X37250000Y27001666D03*
X37750000Y27001666D03*
D21*
X38335000Y27586666D03*
X38335000Y28086666D03*
X38335000Y28586666D03*
X38335000Y29086666D03*
X38335000Y29586666D03*
X38335000Y30086666D03*
X38335000Y30586666D03*
X38335000Y31086666D03*
X38335000Y31586666D03*
X38335000Y32086666D03*
D22*
X37750000Y32671666D03*
X37250000Y32671666D03*
X36750000Y32671666D03*
X36250000Y32671666D03*
X35750000Y32671666D03*
X35250000Y32671666D03*
X34750000Y32671666D03*
X34250000Y32671666D03*
X33750000Y32671666D03*
X33250000Y32671666D03*
D23*
X35800000Y37500000D03*
X38000000Y37500000D03*
X38000000Y39100000D03*
X35800000Y39100000D03*
D24*
X5350711Y16639289D03*
D25*
X5350711Y15524289D03*
D13*
X55712500Y16400000D03*
X57287500Y16400000D03*
D24*
X52450711Y21139289D03*
D25*
X52450711Y20024289D03*
D17*
X59350000Y31512500D03*
X59350000Y33087500D03*
D15*
X61600000Y43087500D03*
X61600000Y41512500D03*
D26*
X55047500Y36115700D03*
X55682500Y36115700D03*
X56317500Y36115700D03*
X56952500Y36115700D03*
X57587500Y36115700D03*
X58222500Y36115700D03*
X58857500Y36115700D03*
X59492500Y36115700D03*
X59492500Y41424300D03*
X58857500Y41424300D03*
X58222500Y41424300D03*
X57587500Y41424300D03*
X56952500Y41424300D03*
X56317500Y41424300D03*
X55682500Y41424300D03*
X55047500Y41424300D03*
D15*
X52800000Y43000000D03*
X52800000Y41425000D03*
D17*
X52800000Y34512500D03*
X52800000Y36087500D03*
D14*
X61187500Y45500000D03*
X59612500Y45500000D03*
D24*
X5349290Y9360710D03*
D25*
X5349290Y10475710D03*
D15*
X8500000Y9287500D03*
X8500000Y7712500D03*
D17*
X8500000Y14012500D03*
X8500000Y15587500D03*
M02*
