%!PS-Adobe-3.0
%%Creator: PCBNEW
%%CreationDate: Tue Feb 16 16:39:31 2021
%%Title: ()
%%Pages: 1
%%PageOrder: Ascend
%%BoundingBox: 0 0 596 842
%%DocumentMedia: A4 595 842 0 () ()
%%Orientation: Landscape
%%EndComments
%%BeginProlog
/line { newpath moveto lineto stroke } bind def
/cir0 { newpath 0 360 arc stroke } bind def
/cir1 { newpath 0 360 arc gsave fill grestore stroke } bind def
/cir2 { newpath 0 360 arc gsave fill grestore stroke } bind def
/arc0 { newpath arc stroke } bind def
/arc1 { newpath 4 index 4 index moveto arc closepath gsave fill
    grestore stroke } bind def
/arc2 { newpath 4 index 4 index moveto arc closepath gsave fill
    grestore stroke } bind def
/poly0 { stroke } bind def
/poly1 { closepath gsave fill grestore stroke } bind def
/poly2 { closepath gsave fill grestore stroke } bind def
/rect0 { rectstroke } bind def
/rect1 { rectfill } bind def
/rect2 { rectfill } bind def
/linemode0 { 0 setlinecap 0 setlinejoin 0 setlinewidth } bind def
/linemode1 { 1 setlinecap 1 setlinejoin } bind def
/dashedline { [200] 100 setdash } bind def
/solidline { [] 0 setdash } bind def
/phantomshow { moveto
    /KicadFont findfont 0.000001 scalefont setfont
    show } bind def
/textshow { gsave
    findfont exch scalefont setfont concat 1 scale 0 0 moveto show
    } bind def
/reencodefont {
  findfont dup length dict begin
  { 1 index /FID ne
    { def }
    { pop pop } ifelse
  } forall
  /Encoding ISOLatin1Encoding def
  currentdict
  end } bind def
/KicadFont /Helvetica reencodefont definefont pop
/KicadFont-Bold /Helvetica-Bold reencodefont definefont pop
/KicadFont-Oblique /Helvetica-Oblique reencodefont definefont pop
/KicadFont-BoldOblique /Helvetica-BoldOblique reencodefont definefont pop
%%EndProlog
%%Page: 1 1
%%BeginPageSetup
gsave
0.0072 0.0072 scale
linemode1
82680 0 translate 90 rotate
159.968 setlinewidth
%%EndPageSetup
0 0 0 setrgbcolor
159.968 setlinewidth
newpath
32470.1 65274.5 moveto
32470.1 78072 lineto
stroke
0 0 0 setrgbcolor
35669.5 51677.2 799.842 -90 -0 arc0
0 0 0 setrgbcolor
33270 65274.5 799.842 180 270 arc0
0 0 0 setrgbcolor
33270 50077.5 799.842 90 180 arc0
0 0 0 setrgbcolor
82060.3 78072 2399.53 -0 90 arc0
0 0 0 setrgbcolor
34869.7 37680 2399.53 180 270 arc0
0 0 0 setrgbcolor
82060.3 37680 2399.53 -90 -0 arc0
0 0 0 setrgbcolor
newpath
69262.9 38479.8 moveto
69262.9 50477.5 lineto
stroke
0 0 0 setrgbcolor
68463 38479.8 799.842 180 360 arc0
0 0 0 setrgbcolor
newpath
67663.2 50477.5 moveto
67663.2 38479.8 lineto
stroke
0 0 0 setrgbcolor
68463 50477.5 799.842 -0 180 arc0
0 0 0 setrgbcolor
newpath
33270 50877.4 moveto
35669.5 50877.4 lineto
stroke
0 0 0 setrgbcolor
35669.5 63674.9 799.842 -0 90 arc0
0 0 0 setrgbcolor
34869.7 78072 2399.53 90 180 arc0
0 0 0 setrgbcolor
newpath
82060.3 35280.5 moveto
34869.7 35280.5 lineto
stroke
0 0 0 setrgbcolor
newpath
32470.1 37680 moveto
32470.1 50077.5 lineto
stroke
0 0 0 setrgbcolor
newpath
35669.5 64474.7 moveto
33270 64474.7 lineto
stroke
0 0 0 setrgbcolor
newpath
36469.3 51677.2 moveto
36469.3 63674.9 lineto
stroke
0 0 0 setrgbcolor
newpath
84459.9 37680 moveto
84459.9 78072 lineto
stroke
0 0 0 setrgbcolor
newpath
82060.3 80471.5 moveto
34869.7 80471.5 lineto
stroke
27.9945 setlinewidth
newpath
34889.6 45978.3 moveto
35169.6 45698.4 lineto
stroke
newpath
35169.6 45978.3 moveto
34889.6 45698.4 lineto
stroke
newpath
35049.6 40379.5 moveto
35329.6 40099.5 lineto
stroke
newpath
35329.6 40379.5 moveto
35049.6 40099.5 lineto
stroke
newpath
35849.5 42699 moveto
36129.4 42419 lineto
stroke
newpath
36129.4 42699 moveto
35849.5 42419 lineto
stroke
newpath
36249.4 47258.1 moveto
36529.3 46978.1 lineto
stroke
newpath
36529.3 47258.1 moveto
36249.4 46978.1 lineto
stroke
newpath
37209.2 79755.7 moveto
37489.1 79475.7 lineto
stroke
newpath
37489.1 79755.7 moveto
37209.2 79475.7 lineto
stroke
newpath
37769.1 45098.5 moveto
38049 44818.6 lineto
stroke
newpath
38049 45098.5 moveto
37769.1 44818.6 lineto
stroke
newpath
37777.1 74676.7 moveto
38057 74396.7 lineto
stroke
newpath
38057 74676.7 moveto
37777.1 74396.7 lineto
stroke
newpath
38568.9 38379.8 moveto
38848.9 38099.9 lineto
stroke
newpath
38848.9 38379.8 moveto
38568.9 38099.9 lineto
stroke
newpath
38648.9 41739.2 moveto
38928.9 41459.2 lineto
stroke
newpath
38928.9 41739.2 moveto
38648.9 41459.2 lineto
stroke
newpath
39928.7 43578.8 moveto
40208.6 43298.9 lineto
stroke
newpath
40208.6 43578.8 moveto
39928.7 43298.9 lineto
stroke
newpath
40096.6 77420.1 moveto
40376.6 77140.2 lineto
stroke
newpath
40376.6 77420.1 moveto
40096.6 77140.2 lineto
stroke
newpath
41608.3 39579.6 moveto
41888.3 39299.7 lineto
stroke
newpath
41888.3 39579.6 moveto
41608.3 39299.7 lineto
stroke
newpath
42040.2 78451.9 moveto
42320.2 78172 lineto
stroke
newpath
42320.2 78451.9 moveto
42040.2 78172 lineto
stroke
newpath
43687.9 38059.9 moveto
43967.9 37780 lineto
stroke
newpath
43967.9 38059.9 moveto
43687.9 37780 lineto
stroke
newpath
44095.8 78459.9 moveto
44375.8 78180 lineto
stroke
newpath
44375.8 78459.9 moveto
44095.8 78180 lineto
stroke
newpath
44567.7 66454.3 moveto
44847.7 66174.4 lineto
stroke
newpath
44847.7 66454.3 moveto
44567.7 66174.4 lineto
stroke
newpath
44567.7 54536.7 moveto
44847.7 54256.7 lineto
stroke
newpath
44847.7 54536.7 moveto
44567.7 54256.7 lineto
stroke
newpath
44647.7 52697 moveto
44927.7 52417.1 lineto
stroke
newpath
44927.7 52697 moveto
44647.7 52417.1 lineto
stroke
newpath
44727.7 44778.6 moveto
45007.7 44498.6 lineto
stroke
newpath
45007.7 44778.6 moveto
44727.7 44498.6 lineto
stroke
newpath
44807.7 49337.7 moveto
45087.6 49057.7 lineto
stroke
newpath
45087.6 49337.7 moveto
44807.7 49057.7 lineto
stroke
newpath
44887.7 59175.7 moveto
45167.6 58895.8 lineto
stroke
newpath
45167.6 59175.7 moveto
44887.7 58895.8 lineto
stroke
newpath
45287.6 60775.4 moveto
45567.5 60495.5 lineto
stroke
newpath
45567.5 60775.4 moveto
45287.6 60495.5 lineto
stroke
newpath
45687.5 64054.8 moveto
45967.5 63774.8 lineto
stroke
newpath
45967.5 64054.8 moveto
45687.5 63774.8 lineto
stroke
newpath
45687.5 57016.2 moveto
45967.5 56736.2 lineto
stroke
newpath
45967.5 57016.2 moveto
45687.5 56736.2 lineto
stroke
newpath
46127.4 76428.3 moveto
46407.4 76148.4 lineto
stroke
newpath
46407.4 76428.3 moveto
46127.4 76148.4 lineto
stroke
newpath
46247.4 40859.4 moveto
46527.4 40579.4 lineto
stroke
newpath
46527.4 40859.4 moveto
46247.4 40579.4 lineto
stroke
newpath
46247.4 39499.6 moveto
46527.4 39219.7 lineto
stroke
newpath
46527.4 39499.6 moveto
46247.4 39219.7 lineto
stroke
newpath
46487.4 49817.6 moveto
46767.3 49537.6 lineto
stroke
newpath
46767.3 49817.6 moveto
46487.4 49537.6 lineto
stroke
newpath
46567.3 53816.8 moveto
46847.3 53536.9 lineto
stroke
newpath
46847.3 53816.8 moveto
46567.3 53536.9 lineto
stroke
newpath
46887.3 51577.2 moveto
47167.2 51297.3 lineto
stroke
newpath
47167.2 51577.2 moveto
46887.3 51297.3 lineto
stroke
newpath
47207.2 39339.7 moveto
47487.2 39059.7 lineto
stroke
newpath
47487.2 39339.7 moveto
47207.2 39059.7 lineto
stroke
newpath
47447.2 41019.3 moveto
47727.1 40739.4 lineto
stroke
newpath
47727.1 41019.3 moveto
47447.2 40739.4 lineto
stroke
newpath
47607.1 55656.4 moveto
47887.1 55376.5 lineto
stroke
newpath
47887.1 55656.4 moveto
47607.1 55376.5 lineto
stroke
newpath
47687.1 71093.4 moveto
47967.1 70813.4 lineto
stroke
newpath
47967.1 71093.4 moveto
47687.1 70813.4 lineto
stroke
newpath
48183 76428.3 moveto
48463 76148.4 lineto
stroke
newpath
48463 76428.3 moveto
48183 76148.4 lineto
stroke
newpath
48567 60855.4 moveto
48846.9 60575.5 lineto
stroke
newpath
48846.9 60855.4 moveto
48567 60575.5 lineto
stroke
newpath
48806.9 70453.5 moveto
49086.8 70173.6 lineto
stroke
newpath
49086.8 70453.5 moveto
48806.9 70173.6 lineto
stroke
newpath
48806.9 69253.8 moveto
49086.8 68973.8 lineto
stroke
newpath
49086.8 69253.8 moveto
48806.9 68973.8 lineto
stroke
newpath
48806.9 68214 moveto
49086.8 67934 lineto
stroke
newpath
49086.8 68214 moveto
48806.9 67934 lineto
stroke
newpath
48806.9 58935.8 moveto
49086.8 58655.8 lineto
stroke
newpath
49086.8 58935.8 moveto
48806.9 58655.8 lineto
stroke
newpath
49766.7 54936.6 moveto
50046.7 54656.6 lineto
stroke
newpath
50046.7 54936.6 moveto
49766.7 54656.6 lineto
stroke
newpath
49926.7 53017 moveto
50206.6 52737 lineto
stroke
newpath
50206.6 53017 moveto
49926.7 52737 lineto
stroke
newpath
49926.7 52137.1 moveto
50206.6 51857.2 lineto
stroke
newpath
50206.6 52137.1 moveto
49926.7 51857.2 lineto
stroke
newpath
49926.7 51257.3 moveto
50206.6 50977.4 lineto
stroke
newpath
50206.6 51257.3 moveto
49926.7 50977.4 lineto
stroke
newpath
50206.6 78380 moveto
50486.6 78100 lineto
stroke
newpath
50486.6 78380 moveto
50206.6 78100 lineto
stroke
newpath
50246.6 76372.4 moveto
50526.6 76092.4 lineto
stroke
newpath
50526.6 76372.4 moveto
50246.6 76092.4 lineto
stroke
newpath
50486.6 63334.9 moveto
50766.5 63055 lineto
stroke
newpath
50766.5 63334.9 moveto
50486.6 63055 lineto
stroke
newpath
51606.4 68054 moveto
51886.3 67774 lineto
stroke
newpath
51886.3 68054 moveto
51606.4 67774 lineto
stroke
newpath
52222.2 78364 moveto
52502.2 78084 lineto
stroke
newpath
52502.2 78364 moveto
52222.2 78084 lineto
stroke
newpath
52246.2 76452.3 moveto
52526.2 76172.4 lineto
stroke
newpath
52526.2 76452.3 moveto
52246.2 76172.4 lineto
stroke
newpath
52406.2 60935.4 moveto
52686.1 60655.5 lineto
stroke
newpath
52686.1 60935.4 moveto
52406.2 60655.5 lineto
stroke
newpath
52566.2 63414.9 moveto
52846.1 63135 lineto
stroke
newpath
52846.1 63414.9 moveto
52566.2 63135 lineto
stroke
newpath
52646.1 48937.8 moveto
52926.1 48657.8 lineto
stroke
newpath
52926.1 48937.8 moveto
52646.1 48657.8 lineto
stroke
newpath
52646.1 44378.7 moveto
52926.1 44098.7 lineto
stroke
newpath
52926.1 44378.7 moveto
52646.1 44098.7 lineto
stroke
newpath
52726.1 56856.2 moveto
53006.1 56576.3 lineto
stroke
newpath
53006.1 56856.2 moveto
52726.1 56576.3 lineto
stroke
newpath
52726.1 53017 moveto
53006.1 52737 lineto
stroke
newpath
53006.1 53017 moveto
52726.1 52737 lineto
stroke
newpath
52726.1 52137.1 moveto
53006.1 51857.2 lineto
stroke
newpath
53006.1 52137.1 moveto
52726.1 51857.2 lineto
stroke
newpath
52726.1 51257.3 moveto
53006.1 50977.4 lineto
stroke
newpath
53006.1 51257.3 moveto
52726.1 50977.4 lineto
stroke
newpath
52806.1 54696.6 moveto
53086.1 54416.7 lineto
stroke
newpath
53086.1 54696.6 moveto
52806.1 54416.7 lineto
stroke
newpath
53685.9 58295.9 moveto
53965.9 58016 lineto
stroke
newpath
53965.9 58295.9 moveto
53685.9 58016 lineto
stroke
newpath
53765.9 59895.6 moveto
54045.9 59615.7 lineto
stroke
newpath
54045.9 59895.6 moveto
53765.9 59615.7 lineto
stroke
newpath
54109.9 62735 moveto
54389.8 62455.1 lineto
stroke
newpath
54389.8 62735 moveto
54109.9 62455.1 lineto
stroke
newpath
54165.8 41739.2 moveto
54445.8 41459.2 lineto
stroke
newpath
54445.8 41739.2 moveto
54165.8 41459.2 lineto
stroke
newpath
54325.8 78451.9 moveto
54605.8 78172 lineto
stroke
newpath
54605.8 78451.9 moveto
54325.8 78172 lineto
stroke
newpath
54325.8 76372.4 moveto
54605.8 76092.4 lineto
stroke
newpath
54605.8 76372.4 moveto
54325.8 76092.4 lineto
stroke
newpath
54405.8 50217.5 moveto
54685.7 49937.6 lineto
stroke
newpath
54685.7 50217.5 moveto
54405.8 49937.6 lineto
stroke
newpath
54725.7 67174.2 moveto
55005.7 66894.2 lineto
stroke
newpath
55005.7 67174.2 moveto
54725.7 66894.2 lineto
stroke
newpath
55445.6 62935 moveto
55725.5 62655.1 lineto
stroke
newpath
55725.5 62935 moveto
55445.6 62655.1 lineto
stroke
newpath
55445.6 53336.9 moveto
55725.5 53057 lineto
stroke
newpath
55725.5 53336.9 moveto
55445.6 53057 lineto
stroke
newpath
55525.6 43578.8 moveto
55805.5 43298.9 lineto
stroke
newpath
55805.5 43578.8 moveto
55525.6 43298.9 lineto
stroke
newpath
55685.5 68373.9 moveto
55965.5 68094 lineto
stroke
newpath
55965.5 68373.9 moveto
55685.5 68094 lineto
stroke
newpath
56005.5 55256.5 moveto
56285.4 54976.6 lineto
stroke
newpath
56285.4 55256.5 moveto
56005.5 54976.6 lineto
stroke
newpath
56085.5 56776.2 moveto
56365.4 56496.3 lineto
stroke
newpath
56365.4 56776.2 moveto
56085.5 56496.3 lineto
stroke
newpath
56145.5 54056.8 moveto
56425.4 53776.8 lineto
stroke
newpath
56425.4 54056.8 moveto
56145.5 53776.8 lineto
stroke
newpath
56309.4 78396 moveto
56589.4 78116 lineto
stroke
newpath
56589.4 78396 moveto
56309.4 78116 lineto
stroke
newpath
56309.4 76340.4 moveto
56589.4 76060.4 lineto
stroke
newpath
56589.4 76340.4 moveto
56309.4 76060.4 lineto
stroke
newpath
56309.4 72941 moveto
56589.4 72661.1 lineto
stroke
newpath
56589.4 72941 moveto
56309.4 72661.1 lineto
stroke
newpath
56405.4 45818.4 moveto
56685.4 45538.4 lineto
stroke
newpath
56685.4 45818.4 moveto
56405.4 45538.4 lineto
stroke
newpath
57125.3 62295.1 moveto
57405.2 62015.2 lineto
stroke
newpath
57405.2 62295.1 moveto
57125.3 62015.2 lineto
stroke
newpath
57365.2 48537.8 moveto
57645.2 48257.9 lineto
stroke
newpath
57645.2 48537.8 moveto
57365.2 48257.9 lineto
stroke
newpath
57525.2 57416.1 moveto
57805.1 57136.1 lineto
stroke
newpath
57805.1 57416.1 moveto
57525.2 57136.1 lineto
stroke
newpath
57640 56101.5 moveto
57920 55821.5 lineto
stroke
newpath
57920 56101.5 moveto
57640 55821.5 lineto
stroke
newpath
57685.2 65334.5 moveto
57965.1 65054.6 lineto
stroke
newpath
57965.1 65334.5 moveto
57685.2 65054.6 lineto
stroke
newpath
57685.2 61095.4 moveto
57965.1 60815.4 lineto
stroke
newpath
57965.1 61095.4 moveto
57685.2 60815.4 lineto
stroke
newpath
57765.1 52057.1 moveto
58045.1 51777.2 lineto
stroke
newpath
58045.1 52057.1 moveto
57765.1 51777.2 lineto
stroke
newpath
57965.1 54056.8 moveto
58245 53776.8 lineto
stroke
newpath
58245 54056.8 moveto
57965.1 53776.8 lineto
stroke
newpath
58245 67734.1 moveto
58525 67454.1 lineto
stroke
newpath
58525 67734.1 moveto
58245 67454.1 lineto
stroke
newpath
58325 66694.3 moveto
58605 66414.3 lineto
stroke
newpath
58605 66694.3 moveto
58325 66414.3 lineto
stroke
newpath
58333 78411.9 moveto
58613 78132 lineto
stroke
newpath
58613 78411.9 moveto
58333 78132 lineto
stroke
newpath
58333 76476.3 moveto
58613 76196.4 lineto
stroke
newpath
58613 76476.3 moveto
58333 76196.4 lineto
stroke
newpath
58549 62519.1 moveto
58828.9 62239.1 lineto
stroke
newpath
58828.9 62519.1 moveto
58549 62239.1 lineto
stroke
newpath
58964.9 63526.9 moveto
59244.8 63246.9 lineto
stroke
newpath
59244.8 63526.9 moveto
58964.9 63246.9 lineto
stroke
newpath
59844.7 60215.5 moveto
60124.7 59935.6 lineto
stroke
newpath
60124.7 60215.5 moveto
59844.7 59935.6 lineto
stroke
newpath
59844.7 59255.7 moveto
60124.7 58975.8 lineto
stroke
newpath
60124.7 59255.7 moveto
59844.7 58975.8 lineto
stroke
newpath
59844.7 58375.9 moveto
60124.7 58096 lineto
stroke
newpath
60124.7 58375.9 moveto
59844.7 58096 lineto
stroke
newpath
60004.7 64614.7 moveto
60284.6 64334.7 lineto
stroke
newpath
60284.6 64614.7 moveto
60004.7 64334.7 lineto
stroke
newpath
60204.7 63510.9 moveto
60484.6 63230.9 lineto
stroke
newpath
60484.6 63510.9 moveto
60204.7 63230.9 lineto
stroke
newpath
60244.6 45898.4 moveto
60524.6 45618.4 lineto
stroke
newpath
60524.6 45898.4 moveto
60244.6 45618.4 lineto
stroke
newpath
60404.6 78611.9 moveto
60684.6 78332 lineto
stroke
newpath
60684.6 78611.9 moveto
60404.6 78332 lineto
stroke
newpath
60404.6 76452.3 moveto
60684.6 76172.4 lineto
stroke
newpath
60684.6 76452.3 moveto
60404.6 76172.4 lineto
stroke
newpath
60404.6 67734.1 moveto
60684.6 67454.1 lineto
stroke
newpath
60684.6 67734.1 moveto
60404.6 67454.1 lineto
stroke
newpath
60724.6 60215.5 moveto
61004.5 59935.6 lineto
stroke
newpath
61004.5 60215.5 moveto
60724.6 59935.6 lineto
stroke
newpath
60724.6 59255.7 moveto
61004.5 58975.8 lineto
stroke
newpath
61004.5 59255.7 moveto
60724.6 58975.8 lineto
stroke
newpath
60724.6 58375.9 moveto
61004.5 58096 lineto
stroke
newpath
61004.5 58375.9 moveto
60724.6 58096 lineto
stroke
newpath
60804.5 53416.9 moveto
61084.5 53136.9 lineto
stroke
newpath
61084.5 53416.9 moveto
60804.5 53136.9 lineto
stroke
newpath
60924.5 56136.3 moveto
61204.5 55856.4 lineto
stroke
newpath
61204.5 56136.3 moveto
60924.5 55856.4 lineto
stroke
newpath
61044.5 67734.1 moveto
61324.4 67454.1 lineto
stroke
newpath
61324.4 67734.1 moveto
61044.5 67454.1 lineto
stroke
newpath
61604.4 60215.5 moveto
61884.3 59935.6 lineto
stroke
newpath
61884.3 60215.5 moveto
61604.4 59935.6 lineto
stroke
newpath
61604.4 59255.7 moveto
61884.3 58975.8 lineto
stroke
newpath
61884.3 59255.7 moveto
61604.4 58975.8 lineto
stroke
newpath
61604.4 58375.9 moveto
61884.3 58096 lineto
stroke
newpath
61884.3 58375.9 moveto
61604.4 58096 lineto
stroke
newpath
62388.2 76404.3 moveto
62668.2 76124.4 lineto
stroke
newpath
62668.2 76404.3 moveto
62388.2 76124.4 lineto
stroke
newpath
62404.2 78531.9 moveto
62684.2 78252 lineto
stroke
newpath
62684.2 78531.9 moveto
62404.2 78252 lineto
stroke
newpath
62404.2 64534.7 moveto
62684.2 64254.7 lineto
stroke
newpath
62684.2 64534.7 moveto
62404.2 64254.7 lineto
stroke
newpath
62724.2 62295.1 moveto
63004.1 62015.2 lineto
stroke
newpath
63004.1 62295.1 moveto
62724.2 62015.2 lineto
stroke
newpath
63124.1 48537.8 moveto
63404 48257.9 lineto
stroke
newpath
63404 48537.8 moveto
63124.1 48257.9 lineto
stroke
newpath
63204.1 61735.2 moveto
63484 61455.3 lineto
stroke
newpath
63484 61735.2 moveto
63204.1 61455.3 lineto
stroke
newpath
63284 64534.7 moveto
63564 64254.7 lineto
stroke
newpath
63564 64534.7 moveto
63284 64254.7 lineto
stroke
newpath
63414 54376.7 moveto
63694 54096.7 lineto
stroke
newpath
63694 54376.7 moveto
63414 54096.7 lineto
stroke
newpath
63444 67894 moveto
63724 67614.1 lineto
stroke
newpath
63724 67894 moveto
63444 67614.1 lineto
stroke
newpath
63604 52057.1 moveto
63883.9 51777.2 lineto
stroke
newpath
63883.9 52057.1 moveto
63604 51777.2 lineto
stroke
newpath
63684 61247.3 moveto
63963.9 60967.4 lineto
stroke
newpath
63963.9 61247.3 moveto
63684 60967.4 lineto
stroke
newpath
64083.9 58615.9 moveto
64363.8 58335.9 lineto
stroke
newpath
64363.8 58615.9 moveto
64083.9 58335.9 lineto
stroke
newpath
64163.9 45738.4 moveto
64443.8 45458.4 lineto
stroke
newpath
64443.8 45738.4 moveto
64163.9 45458.4 lineto
stroke
newpath
64413.8 54376.7 moveto
64693.8 54096.7 lineto
stroke
newpath
64693.8 54376.7 moveto
64413.8 54096.7 lineto
stroke
newpath
64459.8 76428.3 moveto
64739.8 76148.4 lineto
stroke
newpath
64739.8 76428.3 moveto
64459.8 76148.4 lineto
stroke
newpath
64483.8 78611.9 moveto
64763.8 78332 lineto
stroke
newpath
64763.8 78611.9 moveto
64483.8 78332 lineto
stroke
newpath
64483.8 56456.3 moveto
64763.8 56176.3 lineto
stroke
newpath
64763.8 56456.3 moveto
64483.8 56176.3 lineto
stroke
newpath
64723.8 64374.7 moveto
65003.7 64094.8 lineto
stroke
newpath
65003.7 64374.7 moveto
64723.8 64094.8 lineto
stroke
newpath
65059.7 62287.1 moveto
65339.6 62007.2 lineto
stroke
newpath
65339.6 62287.1 moveto
65059.7 62007.2 lineto
stroke
newpath
65363.6 65414.5 moveto
65643.6 65134.6 lineto
stroke
newpath
65643.6 65414.5 moveto
65363.6 65134.6 lineto
stroke
newpath
65443.6 66774.2 moveto
65723.6 66494.3 lineto
stroke
newpath
65723.6 66774.2 moveto
65443.6 66494.3 lineto
stroke
newpath
65683.6 54376.7 moveto
65963.5 54096.7 lineto
stroke
newpath
65963.5 54376.7 moveto
65683.6 54096.7 lineto
stroke
newpath
65779.6 55808.4 moveto
66059.5 55528.5 lineto
stroke
newpath
66059.5 55808.4 moveto
65779.6 55528.5 lineto
stroke
newpath
66243.5 58855.8 moveto
66523.4 58575.9 lineto
stroke
newpath
66523.4 58855.8 moveto
66243.5 58575.9 lineto
stroke
newpath
66243.5 43978.7 moveto
66523.4 43698.8 lineto
stroke
newpath
66523.4 43978.7 moveto
66243.5 43698.8 lineto
stroke
newpath
66315.5 62391.1 moveto
66595.4 62111.2 lineto
stroke
newpath
66595.4 62391.1 moveto
66315.5 62111.2 lineto
stroke
newpath
66435.4 78443.9 moveto
66715.4 78164 lineto
stroke
newpath
66715.4 78443.9 moveto
66435.4 78164 lineto
stroke
newpath
66483.4 76372.4 moveto
66763.4 76092.4 lineto
stroke
newpath
66763.4 76372.4 moveto
66483.4 76092.4 lineto
stroke
newpath
66563.4 61495.3 moveto
66843.3 61215.3 lineto
stroke
newpath
66843.3 61495.3 moveto
66563.4 61215.3 lineto
stroke
newpath
66867.3 62935 moveto
67147.3 62655.1 lineto
stroke
newpath
67147.3 62935 moveto
66867.3 62655.1 lineto
stroke
newpath
67043.3 60855.4 moveto
67323.3 60575.5 lineto
stroke
newpath
67323.3 60855.4 moveto
67043.3 60575.5 lineto
stroke
newpath
67523.2 59335.7 moveto
67803.2 59055.8 lineto
stroke
newpath
67803.2 59335.7 moveto
67523.2 59055.8 lineto
stroke
newpath
68483 78459.9 moveto
68763 78180 lineto
stroke
newpath
68763 78459.9 moveto
68483 78180 lineto
stroke
newpath
68483 76292.4 moveto
68763 76012.4 lineto
stroke
newpath
68763 76292.4 moveto
68483 76012.4 lineto
stroke
newpath
68803 56456.3 moveto
69082.9 56176.3 lineto
stroke
newpath
69082.9 56456.3 moveto
68803 56176.3 lineto
stroke
newpath
68962.9 65974.4 moveto
69242.9 65694.5 lineto
stroke
newpath
69242.9 65974.4 moveto
68962.9 65694.5 lineto
stroke
newpath
68962.9 59175.7 moveto
69242.9 58895.8 lineto
stroke
newpath
69242.9 59175.7 moveto
68962.9 58895.8 lineto
stroke
newpath
69202.9 62295.1 moveto
69482.8 62015.2 lineto
stroke
newpath
69482.8 62295.1 moveto
69202.9 62015.2 lineto
stroke
newpath
70514.6 79131.8 moveto
70794.6 78851.9 lineto
stroke
newpath
70794.6 79131.8 moveto
70514.6 78851.9 lineto
stroke
newpath
70562.6 76372.4 moveto
70842.6 76092.4 lineto
stroke
newpath
70842.6 76372.4 moveto
70562.6 76092.4 lineto
stroke
newpath
71250.5 60927.4 moveto
71530.4 60647.5 lineto
stroke
newpath
71530.4 60927.4 moveto
71250.5 60647.5 lineto
stroke
newpath
71682.4 54056.8 moveto
71962.3 53776.8 lineto
stroke
newpath
71962.3 54056.8 moveto
71682.4 53776.8 lineto
stroke
newpath
71842.4 49817.6 moveto
72122.3 49537.6 lineto
stroke
newpath
72122.3 49817.6 moveto
71842.4 49537.6 lineto
stroke
newpath
71922.3 55816.4 moveto
72202.3 55536.5 lineto
stroke
newpath
72202.3 55816.4 moveto
71922.3 55536.5 lineto
stroke
newpath
72142.3 55016.6 moveto
72422.2 54736.6 lineto
stroke
newpath
72422.2 55016.6 moveto
72142.3 54736.6 lineto
stroke
newpath
72322.3 45738.4 moveto
72602.2 45458.4 lineto
stroke
newpath
72602.2 45738.4 moveto
72322.3 45458.4 lineto
stroke
newpath
72562.2 76372.4 moveto
72842.2 76092.4 lineto
stroke
newpath
72842.2 76372.4 moveto
72562.2 76092.4 lineto
stroke
newpath
72562.2 62295.1 moveto
72842.2 62015.2 lineto
stroke
newpath
72842.2 62295.1 moveto
72562.2 62015.2 lineto
stroke
newpath
73202.1 64454.7 moveto
73482 64174.8 lineto
stroke
newpath
73482 64454.7 moveto
73202.1 64174.8 lineto
stroke
newpath
73602 53416.9 moveto
73882 53136.9 lineto
stroke
newpath
73882 53416.9 moveto
73602 53136.9 lineto
stroke
newpath
73622 55016.6 moveto
73902 54736.6 lineto
stroke
newpath
73902 55016.6 moveto
73622 54736.6 lineto
stroke
newpath
73786 60407.5 moveto
74065.9 60127.6 lineto
stroke
newpath
74065.9 60407.5 moveto
73786 60127.6 lineto
stroke
newpath
74561.8 78531.9 moveto
74841.8 78252 lineto
stroke
newpath
74841.8 78531.9 moveto
74561.8 78252 lineto
stroke
newpath
74561.8 62055.2 moveto
74841.8 61775.2 lineto
stroke
newpath
74841.8 62055.2 moveto
74561.8 61775.2 lineto
stroke
newpath
74577.8 70973.4 moveto
74857.8 70693.5 lineto
stroke
newpath
74857.8 70973.4 moveto
74577.8 70693.5 lineto
stroke
newpath
74641.8 76452.3 moveto
74921.8 76172.4 lineto
stroke
newpath
74921.8 76452.3 moveto
74641.8 76172.4 lineto
stroke
newpath
74721.8 46778.2 moveto
75001.7 46498.2 lineto
stroke
newpath
75001.7 46778.2 moveto
74721.8 46498.2 lineto
stroke
newpath
74801.8 55016.6 moveto
75081.7 54736.6 lineto
stroke
newpath
75081.7 55016.6 moveto
74801.8 54736.6 lineto
stroke
newpath
75601.6 56936.2 moveto
75881.6 56656.2 lineto
stroke
newpath
75881.6 56936.2 moveto
75601.6 56656.2 lineto
stroke
newpath
75841.6 59335.7 moveto
76121.5 59055.8 lineto
stroke
newpath
76121.5 59335.7 moveto
75841.6 59055.8 lineto
stroke
newpath
76185.5 72797.1 moveto
76465.4 72517.1 lineto
stroke
newpath
76465.4 72797.1 moveto
76185.5 72517.1 lineto
stroke
newpath
76361.5 62991 moveto
76641.4 62711 lineto
stroke
newpath
76641.4 62991 moveto
76361.5 62711 lineto
stroke
newpath
76641.4 78531.9 moveto
76921.4 78252 lineto
stroke
newpath
76921.4 78531.9 moveto
76641.4 78252 lineto
stroke
newpath
76785.4 71853.2 moveto
77065.3 71573.3 lineto
stroke
newpath
77065.3 71853.2 moveto
76785.4 71573.3 lineto
stroke
newpath
76801.4 62215.1 moveto
77081.3 61935.2 lineto
stroke
newpath
77081.3 62215.1 moveto
76801.4 61935.2 lineto
stroke
newpath
76873.4 69893.6 moveto
77153.3 69613.7 lineto
stroke
newpath
77153.3 69893.6 moveto
76873.4 69613.7 lineto
stroke
newpath
77521.2 53336.9 moveto
77801.2 53057 lineto
stroke
newpath
77801.2 53336.9 moveto
77521.2 53057 lineto
stroke
newpath
78391.1 73754.9 moveto
78671 73474.9 lineto
stroke
newpath
78671 73754.9 moveto
78391.1 73474.9 lineto
stroke
newpath
78481.1 42059.1 moveto
78761 41779.2 lineto
stroke
newpath
78761 42059.1 moveto
78481.1 41779.2 lineto
stroke
newpath
78697 74820.7 moveto
78977 74540.7 lineto
stroke
newpath
78977 74820.7 moveto
78697 74540.7 lineto
stroke
newpath
78721 55736.4 moveto
79000.9 55456.5 lineto
stroke
newpath
79000.9 55736.4 moveto
78721 55456.5 lineto
stroke
newpath
78721 36860.1 moveto
79000.9 36580.2 lineto
stroke
newpath
79000.9 36860.1 moveto
78721 36580.2 lineto
stroke
newpath
79280.9 57016.2 moveto
79560.8 56736.2 lineto
stroke
newpath
79560.8 57016.2 moveto
79280.9 56736.2 lineto
stroke
newpath
79280.9 46698.2 moveto
79560.8 46418.3 lineto
stroke
newpath
79560.8 46698.2 moveto
79280.9 46418.3 lineto
stroke
newpath
79512.8 78356 moveto
79792.8 78076 lineto
stroke
newpath
79792.8 78356 moveto
79512.8 78076 lineto
stroke
newpath
79520.8 71021.4 moveto
79800.8 70741.5 lineto
stroke
newpath
79800.8 71021.4 moveto
79520.8 70741.5 lineto
stroke
newpath
79528.8 73309 moveto
79808.8 73029 lineto
stroke
newpath
79808.8 73309 moveto
79528.8 73029 lineto
stroke
newpath
79760.8 40299.5 moveto
80040.7 40019.5 lineto
stroke
newpath
80040.7 40299.5 moveto
79760.8 40019.5 lineto
stroke
newpath
79826.8 71851.2 moveto
80106.7 71571.3 lineto
stroke
newpath
80106.7 71851.2 moveto
79826.8 71571.3 lineto
stroke
newpath
80160.7 58135.9 moveto
80440.7 57856 lineto
stroke
newpath
80440.7 58135.9 moveto
80160.7 57856 lineto
stroke
newpath
80800.6 60287.5 moveto
81080.5 60007.6 lineto
stroke
newpath
81080.5 60287.5 moveto
80800.6 60007.6 lineto
stroke
newpath
80880.6 68533.9 moveto
81160.5 68254 lineto
stroke
newpath
81160.5 68533.9 moveto
80880.6 68254 lineto
stroke
newpath
80880.6 64374.7 moveto
81160.5 64094.8 lineto
stroke
newpath
81160.5 64374.7 moveto
80880.6 64094.8 lineto
stroke
newpath
81272.5 77084.2 moveto
81552.4 76804.3 lineto
stroke
newpath
81552.4 77084.2 moveto
81272.5 76804.3 lineto
stroke
newpath
81328.5 74020.8 moveto
81608.4 73740.9 lineto
stroke
newpath
81608.4 74020.8 moveto
81328.5 73740.9 lineto
stroke
newpath
81520.5 49257.7 moveto
81800.4 48977.8 lineto
stroke
newpath
81800.4 49257.7 moveto
81520.5 48977.8 lineto
stroke
newpath
82640.2 56616.2 moveto
82920.2 56336.3 lineto
stroke
newpath
82920.2 56616.2 moveto
82640.2 56336.3 lineto
stroke
newpath
83040.2 79251.8 moveto
83320.1 78971.8 lineto
stroke
newpath
83320.1 79251.8 moveto
83040.2 78971.8 lineto
stroke
newpath
83040.2 51017.4 moveto
83320.1 50737.4 lineto
stroke
newpath
83320.1 51017.4 moveto
83040.2 50737.4 lineto
stroke
newpath
83120.1 46858.2 moveto
83400.1 46578.2 lineto
stroke
newpath
83400.1 46858.2 moveto
83120.1 46578.2 lineto
stroke
newpath
83120.1 42619 moveto
83400.1 42339.1 lineto
stroke
newpath
83400.1 42619 moveto
83120.1 42339.1 lineto
stroke
newpath
83200.1 71893.2 moveto
83480.1 71613.3 lineto
stroke
newpath
83480.1 71893.2 moveto
83200.1 71613.3 lineto
stroke
39.9921 setlinewidth
42604.1 49845.6 199.961 cir0
42628.1 53564.9 199.961 cir0
44171.8 59803.6 199.961 cir0
47971.1 56772.2 199.961 cir0
51098.5 66346.3 199.961 cir0
52802.1 65962.4 199.961 cir0
54249.8 64978.6 199.961 cir0
56849.3 43406.9 199.961 cir0
60784.5 43358.9 199.961 cir0
65023.7 43406.9 199.961 cir0
66967.3 51645.2 199.961 cir0
67007.3 57628 199.961 cir0
67007.3 53564.9 199.961 cir0
71182.5 58523.9 199.961 cir0
71358.5 66178.4 199.961 cir0
71390.5 64530.7 199.961 cir0
71390.5 62883 199.961 cir0
73926 58052 199.961 cir0
77677.2 58076 199.961 cir0
79.9842 setlinewidth
newpath
43547.9 41839.2 moveto
43547.9 41039.3 lineto
stroke
newpath
43148 41439.2 moveto
43947.9 41439.2 lineto
stroke
newpath
46347.4 45838.4 moveto
46347.4 45038.5 lineto
stroke
newpath
45947.5 45438.5 moveto
46747.3 45438.5 lineto
stroke
newpath
49146.8 41839.2 moveto
49146.8 41039.3 lineto
stroke
newpath
48746.9 41439.2 moveto
49546.8 41439.2 lineto
stroke
newpath
67503.2 64554.7 moveto
67503.2 63754.8 lineto
stroke
newpath
67103.3 64154.8 moveto
67903.1 64154.8 lineto
stroke
newpath
80940.6 56556.3 moveto
80940.6 55756.4 lineto
stroke
newpath
80540.6 56156.3 moveto
81340.5 56156.3 lineto
stroke
newpath
80940.6 54524.7 moveto
80940.6 53724.8 lineto
stroke
newpath
80540.6 54124.7 moveto
81340.5 54124.7 lineto
stroke
newpath
80940.6 52493.1 moveto
80940.6 51693.2 lineto
stroke
newpath
80540.6 52093.1 moveto
81340.5 52093.1 lineto
stroke
newpath
80940.6 48237.9 moveto
80940.6 47438.1 lineto
stroke
newpath
80540.6 47838 moveto
81340.5 47838 lineto
stroke
newpath
80940.6 46206.3 moveto
80940.6 45406.5 lineto
stroke
newpath
80540.6 45806.4 moveto
81340.5 45806.4 lineto
stroke
newpath
80940.6 44174.7 moveto
80940.6 43374.9 lineto
stroke
newpath
80540.6 43774.8 moveto
81340.5 43774.8 lineto
stroke
87.9826 setlinewidth
newpath
42859.2 69562.6 moveto
42859.2 70184.7 lineto
42237.1 70184.7 lineto
42237.1 69562.6 lineto
42859.2 69562.6 lineto
poly0
newpath
42859.2 64963.5 moveto
42859.2 65585.6 lineto
42237.1 65585.6 lineto
42237.1 64963.5 lineto
42859.2 64963.5 lineto
poly0
77.5847 setlinewidth
newpath
39164.8 77900.1 moveto
39552.7 78288 lineto
39164.8 78675.9 lineto
38776.9 78288 lineto
39164.8 77900.1 lineto
poly0
newpath
39164.8 75868.5 moveto
39552.7 76256.4 lineto
39164.8 76644.3 lineto
38776.9 76256.4 lineto
39164.8 75868.5 lineto
poly0
newpath
41196.4 77900.1 moveto
41584.3 78288 lineto
41196.4 78675.9 lineto
40808.5 78288 lineto
41196.4 77900.1 lineto
poly0
newpath
41196.4 75868.5 moveto
41584.3 76256.4 lineto
41196.4 76644.3 lineto
40808.5 76256.4 lineto
41196.4 75868.5 lineto
poly0
newpath
43228 77900.1 moveto
43615.9 78288 lineto
43228 78675.9 lineto
42840.1 78288 lineto
43228 77900.1 lineto
poly0
newpath
43228 75868.5 moveto
43615.9 76256.4 lineto
43228 76644.3 lineto
42840.1 76256.4 lineto
43228 75868.5 lineto
poly0
newpath
45259.6 77900.1 moveto
45647.5 78288 lineto
45259.6 78675.9 lineto
44871.7 78288 lineto
45259.6 77900.1 lineto
poly0
newpath
45259.6 75868.5 moveto
45647.5 76256.4 lineto
45259.6 76644.3 lineto
44871.7 76256.4 lineto
45259.6 75868.5 lineto
poly0
newpath
47291.2 77900.1 moveto
47679.1 78288 lineto
47291.2 78675.9 lineto
46903.3 78288 lineto
47291.2 77900.1 lineto
poly0
newpath
47291.2 75868.5 moveto
47679.1 76256.4 lineto
47291.2 76644.3 lineto
46903.3 76256.4 lineto
47291.2 75868.5 lineto
poly0
newpath
49322.8 77900.1 moveto
49710.7 78288 lineto
49322.8 78675.9 lineto
48934.9 78288 lineto
49322.8 77900.1 lineto
poly0
newpath
49322.8 75868.5 moveto
49710.7 76256.4 lineto
49322.8 76644.3 lineto
48934.9 76256.4 lineto
49322.8 75868.5 lineto
poly0
newpath
51354.4 77900.1 moveto
51742.3 78288 lineto
51354.4 78675.9 lineto
50966.5 78288 lineto
51354.4 77900.1 lineto
poly0
newpath
51354.4 75868.5 moveto
51742.3 76256.4 lineto
51354.4 76644.3 lineto
50966.5 76256.4 lineto
51354.4 75868.5 lineto
poly0
newpath
53386 77900.1 moveto
53773.9 78288 lineto
53386 78675.9 lineto
52998.1 78288 lineto
53386 77900.1 lineto
poly0
newpath
53386 75868.5 moveto
53773.9 76256.4 lineto
53386 76644.3 lineto
52998.1 76256.4 lineto
53386 75868.5 lineto
poly0
newpath
55417.6 77900.1 moveto
55805.5 78288 lineto
55417.6 78675.9 lineto
55029.7 78288 lineto
55417.6 77900.1 lineto
poly0
newpath
55417.6 75868.5 moveto
55805.5 76256.4 lineto
55417.6 76644.3 lineto
55029.7 76256.4 lineto
55417.6 75868.5 lineto
poly0
newpath
57449.2 77900.1 moveto
57837.1 78288 lineto
57449.2 78675.9 lineto
57061.3 78288 lineto
57449.2 77900.1 lineto
poly0
newpath
57449.2 75868.5 moveto
57837.1 76256.4 lineto
57449.2 76644.3 lineto
57061.3 76256.4 lineto
57449.2 75868.5 lineto
poly0
newpath
59480.8 77900.1 moveto
59868.7 78288 lineto
59480.8 78675.9 lineto
59092.9 78288 lineto
59480.8 77900.1 lineto
poly0
newpath
59480.8 75868.5 moveto
59868.7 76256.4 lineto
59480.8 76644.3 lineto
59092.9 76256.4 lineto
59480.8 75868.5 lineto
poly0
newpath
61512.4 77900.1 moveto
61900.3 78288 lineto
61512.4 78675.9 lineto
61124.5 78288 lineto
61512.4 77900.1 lineto
poly0
newpath
61512.4 75868.5 moveto
61900.3 76256.4 lineto
61512.4 76644.3 lineto
61124.5 76256.4 lineto
61512.4 75868.5 lineto
poly0
newpath
63544 77900.1 moveto
63931.9 78288 lineto
63544 78675.9 lineto
63156.1 78288 lineto
63544 77900.1 lineto
poly0
newpath
63544 75868.5 moveto
63931.9 76256.4 lineto
63544 76644.3 lineto
63156.1 76256.4 lineto
63544 75868.5 lineto
poly0
newpath
65575.6 77900.1 moveto
65963.5 78288 lineto
65575.6 78675.9 lineto
65187.7 78288 lineto
65575.6 77900.1 lineto
poly0
newpath
65575.6 75868.5 moveto
65963.5 76256.4 lineto
65575.6 76644.3 lineto
65187.7 76256.4 lineto
65575.6 75868.5 lineto
poly0
newpath
67607.2 77900.1 moveto
67995.1 78288 lineto
67607.2 78675.9 lineto
67219.3 78288 lineto
67607.2 77900.1 lineto
poly0
newpath
67607.2 75868.5 moveto
67995.1 76256.4 lineto
67607.2 76644.3 lineto
67219.3 76256.4 lineto
67607.2 75868.5 lineto
poly0
newpath
69638.8 77900.1 moveto
70026.7 78288 lineto
69638.8 78675.9 lineto
69250.9 78288 lineto
69638.8 77900.1 lineto
poly0
newpath
69638.8 75868.5 moveto
70026.7 76256.4 lineto
69638.8 76644.3 lineto
69250.9 76256.4 lineto
69638.8 75868.5 lineto
poly0
newpath
71670.4 77900.1 moveto
72058.3 78288 lineto
71670.4 78675.9 lineto
71282.5 78288 lineto
71670.4 77900.1 lineto
poly0
newpath
71670.4 75868.5 moveto
72058.3 76256.4 lineto
71670.4 76644.3 lineto
71282.5 76256.4 lineto
71670.4 75868.5 lineto
poly0
newpath
73702 77900.1 moveto
74089.9 78288 lineto
73702 78675.9 lineto
73314.1 78288 lineto
73702 77900.1 lineto
poly0
newpath
73702 75868.5 moveto
74089.9 76256.4 lineto
73702 76644.3 lineto
73314.1 76256.4 lineto
73702 75868.5 lineto
poly0
newpath
75733.6 77900.1 moveto
76121.5 78288 lineto
75733.6 78675.9 lineto
75345.7 78288 lineto
75733.6 77900.1 lineto
poly0
newpath
75733.6 75868.5 moveto
76121.5 76256.4 lineto
75733.6 76644.3 lineto
75345.7 76256.4 lineto
75733.6 75868.5 lineto
poly0
newpath
77765.2 77900.1 moveto
78153.1 78288 lineto
77765.2 78675.9 lineto
77377.3 78288 lineto
77765.2 77900.1 lineto
poly0
newpath
77765.2 75868.5 moveto
78153.1 76256.4 lineto
77765.2 76644.3 lineto
77377.3 76256.4 lineto
77765.2 75868.5 lineto
poly0
159.968 setlinewidth
78.7405 setlinewidth
0 0 0 setrgbcolor
0 0 0 setrgbcolor
newpath
33244.4 33818.2 moveto
33244.4 34605.6 lineto
33431.9 34605.6 lineto
33544.4 34568.1 lineto
33619.4 34493.1 lineto
33656.9 34418.1 lineto
33694.4 34268.1 lineto
33694.4 34155.6 lineto
33656.9 34005.6 lineto
33619.4 33930.6 lineto
33544.4 33855.7 lineto
33431.9 33818.2 lineto
33244.4 33818.2 lineto
stroke
newpath
34031.8 33818.2 moveto
34031.8 34343.1 lineto
stroke
newpath
34031.8 34193.1 moveto
34069.3 34268.1 lineto
34106.8 34305.6 lineto
34181.8 34343.1 lineto
34256.8 34343.1 lineto
stroke
newpath
34519.3 33818.2 moveto
34519.3 34343.1 lineto
stroke
newpath
34519.3 34605.6 moveto
34481.8 34568.1 lineto
34519.3 34530.6 lineto
34556.8 34568.1 lineto
34519.3 34605.6 lineto
34519.3 34530.6 lineto
stroke
newpath
35006.7 33818.2 moveto
34931.7 33855.7 lineto
34894.2 33930.6 lineto
34894.2 34605.6 lineto
stroke
newpath
35419.2 33818.2 moveto
35344.2 33855.7 lineto
35306.7 33930.6 lineto
35306.7 34605.6 lineto
stroke
newpath
36319 33818.2 moveto
36319 34605.6 lineto
36581.5 34043.1 lineto
36844 34605.6 lineto
36844 33818.2 lineto
stroke
newpath
37556.4 33818.2 moveto
37556.4 34230.6 lineto
37518.9 34305.6 lineto
37443.9 34343.1 lineto
37293.9 34343.1 lineto
37218.9 34305.6 lineto
stroke
newpath
37556.4 33855.7 moveto
37481.4 33818.2 lineto
37293.9 33818.2 lineto
37218.9 33855.7 lineto
37181.4 33930.6 lineto
37181.4 34005.6 lineto
37218.9 34080.6 lineto
37293.9 34118.1 lineto
37481.4 34118.1 lineto
37556.4 34155.6 lineto
stroke
newpath
37931.3 34343.1 moveto
37931.3 33555.7 lineto
stroke
newpath
37931.3 34305.6 moveto
38006.3 34343.1 lineto
38156.3 34343.1 lineto
38231.3 34305.6 lineto
38268.8 34268.1 lineto
38306.3 34193.1 lineto
38306.3 33968.1 lineto
38268.8 33893.1 lineto
38231.3 33855.7 lineto
38156.3 33818.2 lineto
38006.3 33818.2 lineto
37931.3 33855.7 lineto
stroke
newpath
38643.7 33893.1 moveto
38681.2 33855.7 lineto
38643.7 33818.2 lineto
38606.3 33855.7 lineto
38643.7 33893.1 lineto
38643.7 33818.2 lineto
stroke
newpath
38643.7 34305.6 moveto
38681.2 34268.1 lineto
38643.7 34230.6 lineto
38606.3 34268.1 lineto
38643.7 34305.6 lineto
38643.7 34230.6 lineto
stroke
27.9945 setlinewidth
newpath
31950.2 32660.8 moveto
32230.2 32380.8 lineto
stroke
newpath
32230.2 32660.8 moveto
31950.2 32380.8 lineto
stroke
159.968 setlinewidth
78.7405 setlinewidth
0 0 0 setrgbcolor
0 0 0 setrgbcolor
newpath
33394.4 32952 moveto
33469.4 32952 lineto
33544.4 32914.5 lineto
33581.9 32877 lineto
33619.4 32802 lineto
33656.9 32652.1 lineto
33656.9 32464.6 lineto
33619.4 32314.6 lineto
33581.9 32239.6 lineto
33544.4 32202.1 lineto
33469.4 32164.6 lineto
33394.4 32164.6 lineto
33319.4 32202.1 lineto
33281.9 32239.6 lineto
33244.4 32314.6 lineto
33206.9 32464.6 lineto
33206.9 32652.1 lineto
33244.4 32802 lineto
33281.9 32877 lineto
33319.4 32914.5 lineto
33394.4 32952 lineto
stroke
newpath
33994.3 32239.6 moveto
34031.8 32202.1 lineto
33994.3 32164.6 lineto
33956.8 32202.1 lineto
33994.3 32239.6 lineto
33994.3 32164.6 lineto
stroke
newpath
34294.3 32952 moveto
34781.7 32952 lineto
34519.3 32652.1 lineto
34631.7 32652.1 lineto
34706.7 32614.6 lineto
34744.2 32577.1 lineto
34781.7 32502.1 lineto
34781.7 32314.6 lineto
34744.2 32239.6 lineto
34706.7 32202.1 lineto
34631.7 32164.6 lineto
34406.8 32164.6 lineto
34331.8 32202.1 lineto
34294.3 32239.6 lineto
stroke
newpath
35494.1 32952 moveto
35119.2 32952 lineto
35081.7 32577.1 lineto
35119.2 32614.6 lineto
35194.2 32652.1 lineto
35381.7 32652.1 lineto
35456.6 32614.6 lineto
35494.1 32577.1 lineto
35531.6 32502.1 lineto
35531.6 32314.6 lineto
35494.1 32239.6 lineto
35456.6 32202.1 lineto
35381.7 32164.6 lineto
35194.2 32164.6 lineto
35119.2 32202.1 lineto
35081.7 32239.6 lineto
stroke
newpath
36019.1 32952 moveto
36094.1 32952 lineto
36169.1 32914.5 lineto
36206.6 32877 lineto
36244 32802 lineto
36281.5 32652.1 lineto
36281.5 32464.6 lineto
36244 32314.6 lineto
36206.6 32239.6 lineto
36169.1 32202.1 lineto
36094.1 32164.6 lineto
36019.1 32164.6 lineto
35944.1 32202.1 lineto
35906.6 32239.6 lineto
35869.1 32314.6 lineto
35831.6 32464.6 lineto
35831.6 32652.1 lineto
35869.1 32802 lineto
35906.6 32877 lineto
35944.1 32914.5 lineto
36019.1 32952 lineto
stroke
newpath
36619 32164.6 moveto
36619 32689.5 lineto
stroke
newpath
36619 32614.6 moveto
36656.5 32652.1 lineto
36731.5 32689.5 lineto
36844 32689.5 lineto
36919 32652.1 lineto
36956.5 32577.1 lineto
36956.5 32164.6 lineto
stroke
newpath
36956.5 32577.1 moveto
36994 32652.1 lineto
37068.9 32689.5 lineto
37181.4 32689.5 lineto
37256.4 32652.1 lineto
37293.9 32577.1 lineto
37293.9 32164.6 lineto
stroke
newpath
37668.9 32164.6 moveto
37668.9 32689.5 lineto
stroke
newpath
37668.9 32614.6 moveto
37706.4 32652.1 lineto
37781.4 32689.5 lineto
37893.8 32689.5 lineto
37968.8 32652.1 lineto
38006.3 32577.1 lineto
38006.3 32164.6 lineto
stroke
newpath
38006.3 32577.1 moveto
38043.8 32652.1 lineto
38118.8 32689.5 lineto
38231.3 32689.5 lineto
38306.3 32652.1 lineto
38343.8 32577.1 lineto
38343.8 32164.6 lineto
stroke
newpath
39881.1 32989.5 moveto
39206.2 31977.1 lineto
stroke
newpath
40893.5 32952 moveto
40968.5 32952 lineto
41043.4 32914.5 lineto
41080.9 32877 lineto
41118.4 32802 lineto
41155.9 32652.1 lineto
41155.9 32464.6 lineto
41118.4 32314.6 lineto
41080.9 32239.6 lineto
41043.4 32202.1 lineto
40968.5 32164.6 lineto
40893.5 32164.6 lineto
40818.5 32202.1 lineto
40781 32239.6 lineto
40743.5 32314.6 lineto
40706 32464.6 lineto
40706 32652.1 lineto
40743.5 32802 lineto
40781 32877 lineto
40818.5 32914.5 lineto
40893.5 32952 lineto
stroke
newpath
41493.4 32239.6 moveto
41530.9 32202.1 lineto
41493.4 32164.6 lineto
41455.9 32202.1 lineto
41493.4 32239.6 lineto
41493.4 32164.6 lineto
stroke
newpath
42018.3 32952 moveto
42093.3 32952 lineto
42168.3 32914.5 lineto
42205.8 32877 lineto
42243.3 32802 lineto
42280.8 32652.1 lineto
42280.8 32464.6 lineto
42243.3 32314.6 lineto
42205.8 32239.6 lineto
42168.3 32202.1 lineto
42093.3 32164.6 lineto
42018.3 32164.6 lineto
41943.3 32202.1 lineto
41905.8 32239.6 lineto
41868.3 32314.6 lineto
41830.8 32464.6 lineto
41830.8 32652.1 lineto
41868.3 32802 lineto
41905.8 32877 lineto
41943.3 32914.5 lineto
42018.3 32952 lineto
stroke
newpath
43030.7 32164.6 moveto
42580.8 32164.6 lineto
stroke
newpath
42805.7 32164.6 moveto
42805.7 32952 lineto
42730.7 32839.5 lineto
42655.7 32764.5 lineto
42580.8 32727 lineto
stroke
newpath
43293.2 32952 moveto
43780.6 32952 lineto
43518.1 32652.1 lineto
43630.6 32652.1 lineto
43705.6 32614.6 lineto
43743.1 32577.1 lineto
43780.6 32502.1 lineto
43780.6 32314.6 lineto
43743.1 32239.6 lineto
43705.6 32202.1 lineto
43630.6 32164.6 lineto
43405.7 32164.6 lineto
43330.7 32202.1 lineto
43293.2 32239.6 lineto
stroke
newpath
44230.5 32614.6 moveto
44155.6 32652.1 lineto
44118.1 32689.5 lineto
44080.6 32764.5 lineto
44080.6 32802 lineto
44118.1 32877 lineto
44155.6 32914.5 lineto
44230.5 32952 lineto
44380.5 32952 lineto
44455.5 32914.5 lineto
44493 32877 lineto
44530.5 32802 lineto
44530.5 32764.5 lineto
44493 32689.5 lineto
44455.5 32652.1 lineto
44380.5 32614.6 lineto
44230.5 32614.6 lineto
44155.6 32577.1 lineto
44118.1 32539.6 lineto
44080.6 32464.6 lineto
44080.6 32314.6 lineto
44118.1 32239.6 lineto
44155.6 32202.1 lineto
44230.5 32164.6 lineto
44380.5 32164.6 lineto
44455.5 32202.1 lineto
44493 32239.6 lineto
44530.5 32314.6 lineto
44530.5 32464.6 lineto
44493 32539.6 lineto
44455.5 32577.1 lineto
44380.5 32614.6 lineto
stroke
newpath
44830.5 32952 moveto
44830.5 32802 lineto
stroke
newpath
45130.4 32952 moveto
45130.4 32802 lineto
stroke
newpath
46292.8 31864.7 moveto
46255.3 31902.1 lineto
46180.3 32014.6 lineto
46142.8 32089.6 lineto
46105.3 32202.1 lineto
46067.8 32389.6 lineto
46067.8 32539.6 lineto
46105.3 32727 lineto
46142.8 32839.5 lineto
46180.3 32914.5 lineto
46255.3 33027 lineto
46292.8 33064.5 lineto
stroke
newpath
46555.3 32877 moveto
46592.8 32914.5 lineto
46667.7 32952 lineto
46855.2 32952 lineto
46930.2 32914.5 lineto
46967.7 32877 lineto
47005.2 32802 lineto
47005.2 32727 lineto
46967.7 32614.6 lineto
46517.8 32164.6 lineto
47005.2 32164.6 lineto
stroke
newpath
47492.6 32952 moveto
47567.6 32952 lineto
47642.6 32914.5 lineto
47680.1 32877 lineto
47717.6 32802 lineto
47755.1 32652.1 lineto
47755.1 32464.6 lineto
47717.6 32314.6 lineto
47680.1 32239.6 lineto
47642.6 32202.1 lineto
47567.6 32164.6 lineto
47492.6 32164.6 lineto
47417.6 32202.1 lineto
47380.2 32239.6 lineto
47342.7 32314.6 lineto
47305.2 32464.6 lineto
47305.2 32652.1 lineto
47342.7 32802 lineto
47380.2 32877 lineto
47417.6 32914.5 lineto
47492.6 32952 lineto
stroke
newpath
48055.1 32877 moveto
48092.6 32914.5 lineto
48167.6 32952 lineto
48355 32952 lineto
48430 32914.5 lineto
48467.5 32877 lineto
48505 32802 lineto
48505 32727 lineto
48467.5 32614.6 lineto
48017.6 32164.6 lineto
48505 32164.6 lineto
stroke
newpath
49442.4 32164.6 moveto
49442.4 32952 lineto
stroke
newpath
49779.9 32164.6 moveto
49779.9 32577.1 lineto
49742.4 32652.1 lineto
49667.4 32689.5 lineto
49554.9 32689.5 lineto
49479.9 32652.1 lineto
49442.4 32614.6 lineto
stroke
newpath
50267.3 32164.6 moveto
50192.3 32202.1 lineto
50154.8 32239.6 lineto
50117.3 32314.6 lineto
50117.3 32539.6 lineto
50154.8 32614.6 lineto
50192.3 32652.1 lineto
50267.3 32689.5 lineto
50379.8 32689.5 lineto
50454.8 32652.1 lineto
50492.3 32614.6 lineto
50529.8 32539.6 lineto
50529.8 32314.6 lineto
50492.3 32239.6 lineto
50454.8 32202.1 lineto
50379.8 32164.6 lineto
50267.3 32164.6 lineto
stroke
newpath
50979.7 32164.6 moveto
50904.7 32202.1 lineto
50867.2 32277.1 lineto
50867.2 32952 lineto
stroke
newpath
51579.6 32202.1 moveto
51504.6 32164.6 lineto
51354.7 32164.6 lineto
51279.7 32202.1 lineto
51242.2 32277.1 lineto
51242.2 32577.1 lineto
51279.7 32652.1 lineto
51354.7 32689.5 lineto
51504.6 32689.5 lineto
51579.6 32652.1 lineto
51617.1 32577.1 lineto
51617.1 32502.1 lineto
51242.2 32427.1 lineto
stroke
newpath
51917.1 32202.1 moveto
51992.1 32164.6 lineto
52142.1 32164.6 lineto
52217 32202.1 lineto
52254.5 32277.1 lineto
52254.5 32314.6 lineto
52217 32389.6 lineto
52142.1 32427.1 lineto
52029.6 32427.1 lineto
51954.6 32464.6 lineto
51917.1 32539.6 lineto
51917.1 32577.1 lineto
51954.6 32652.1 lineto
52029.6 32689.5 lineto
52142.1 32689.5 lineto
52217 32652.1 lineto
stroke
newpath
52517 31864.7 moveto
52554.5 31902.1 lineto
52629.5 32014.6 lineto
52667 32089.6 lineto
52704.5 32202.1 lineto
52742 32389.6 lineto
52742 32539.6 lineto
52704.5 32727 lineto
52667 32839.5 lineto
52629.5 32914.5 lineto
52554.5 33027 lineto
52517 33064.5 lineto
stroke
39.9921 setlinewidth
32030.2 31481.4 199.961 cir0
159.968 setlinewidth
78.7405 setlinewidth
0 0 0 setrgbcolor
0 0 0 setrgbcolor
newpath
33394.4 31912.6 moveto
33469.4 31912.6 lineto
33544.4 31875.1 lineto
33581.9 31837.7 lineto
33619.4 31762.7 lineto
33656.9 31612.7 lineto
33656.9 31425.2 lineto
33619.4 31275.2 lineto
33581.9 31200.2 lineto
33544.4 31162.7 lineto
33469.4 31125.2 lineto
33394.4 31125.2 lineto
33319.4 31162.7 lineto
33281.9 31200.2 lineto
33244.4 31275.2 lineto
33206.9 31425.2 lineto
33206.9 31612.7 lineto
33244.4 31762.7 lineto
33281.9 31837.7 lineto
33319.4 31875.1 lineto
33394.4 31912.6 lineto
stroke
newpath
33994.3 31200.2 moveto
34031.8 31162.7 lineto
33994.3 31125.2 lineto
33956.8 31162.7 lineto
33994.3 31200.2 lineto
33994.3 31125.2 lineto
stroke
newpath
34744.2 31912.6 moveto
34369.3 31912.6 lineto
34331.8 31537.7 lineto
34369.3 31575.2 lineto
34444.3 31612.7 lineto
34631.7 31612.7 lineto
34706.7 31575.2 lineto
34744.2 31537.7 lineto
34781.7 31462.7 lineto
34781.7 31275.2 lineto
34744.2 31200.2 lineto
34706.7 31162.7 lineto
34631.7 31125.2 lineto
34444.3 31125.2 lineto
34369.3 31162.7 lineto
34331.8 31200.2 lineto
stroke
newpath
35269.2 31912.6 moveto
35344.2 31912.6 lineto
35419.2 31875.1 lineto
35456.6 31837.7 lineto
35494.1 31762.7 lineto
35531.6 31612.7 lineto
35531.6 31425.2 lineto
35494.1 31275.2 lineto
35456.6 31200.2 lineto
35419.2 31162.7 lineto
35344.2 31125.2 lineto
35269.2 31125.2 lineto
35194.2 31162.7 lineto
35156.7 31200.2 lineto
35119.2 31275.2 lineto
35081.7 31425.2 lineto
35081.7 31612.7 lineto
35119.2 31762.7 lineto
35156.7 31837.7 lineto
35194.2 31875.1 lineto
35269.2 31912.6 lineto
stroke
newpath
36019.1 31912.6 moveto
36094.1 31912.6 lineto
36169.1 31875.1 lineto
36206.6 31837.7 lineto
36244 31762.7 lineto
36281.5 31612.7 lineto
36281.5 31425.2 lineto
36244 31275.2 lineto
36206.6 31200.2 lineto
36169.1 31162.7 lineto
36094.1 31125.2 lineto
36019.1 31125.2 lineto
35944.1 31162.7 lineto
35906.6 31200.2 lineto
35869.1 31275.2 lineto
35831.6 31425.2 lineto
35831.6 31612.7 lineto
35869.1 31762.7 lineto
35906.6 31837.7 lineto
35944.1 31875.1 lineto
36019.1 31912.6 lineto
stroke
newpath
36619 31125.2 moveto
36619 31650.2 lineto
stroke
newpath
36619 31575.2 moveto
36656.5 31612.7 lineto
36731.5 31650.2 lineto
36844 31650.2 lineto
36919 31612.7 lineto
36956.5 31537.7 lineto
36956.5 31125.2 lineto
stroke
newpath
36956.5 31537.7 moveto
36994 31612.7 lineto
37068.9 31650.2 lineto
37181.4 31650.2 lineto
37256.4 31612.7 lineto
37293.9 31537.7 lineto
37293.9 31125.2 lineto
stroke
newpath
37668.9 31125.2 moveto
37668.9 31650.2 lineto
stroke
newpath
37668.9 31575.2 moveto
37706.4 31612.7 lineto
37781.4 31650.2 lineto
37893.8 31650.2 lineto
37968.8 31612.7 lineto
38006.3 31537.7 lineto
38006.3 31125.2 lineto
stroke
newpath
38006.3 31537.7 moveto
38043.8 31612.7 lineto
38118.8 31650.2 lineto
38231.3 31650.2 lineto
38306.3 31612.7 lineto
38343.8 31537.7 lineto
38343.8 31125.2 lineto
stroke
newpath
39881.1 31950.1 moveto
39206.2 30937.8 lineto
stroke
newpath
40893.5 31912.6 moveto
40968.5 31912.6 lineto
41043.4 31875.1 lineto
41080.9 31837.7 lineto
41118.4 31762.7 lineto
41155.9 31612.7 lineto
41155.9 31425.2 lineto
41118.4 31275.2 lineto
41080.9 31200.2 lineto
41043.4 31162.7 lineto
40968.5 31125.2 lineto
40893.5 31125.2 lineto
40818.5 31162.7 lineto
40781 31200.2 lineto
40743.5 31275.2 lineto
40706 31425.2 lineto
40706 31612.7 lineto
40743.5 31762.7 lineto
40781 31837.7 lineto
40818.5 31875.1 lineto
40893.5 31912.6 lineto
stroke
newpath
41493.4 31200.2 moveto
41530.9 31162.7 lineto
41493.4 31125.2 lineto
41455.9 31162.7 lineto
41493.4 31200.2 lineto
41493.4 31125.2 lineto
stroke
newpath
42018.3 31912.6 moveto
42093.3 31912.6 lineto
42168.3 31875.1 lineto
42205.8 31837.7 lineto
42243.3 31762.7 lineto
42280.8 31612.7 lineto
42280.8 31425.2 lineto
42243.3 31275.2 lineto
42205.8 31200.2 lineto
42168.3 31162.7 lineto
42093.3 31125.2 lineto
42018.3 31125.2 lineto
41943.3 31162.7 lineto
41905.8 31200.2 lineto
41868.3 31275.2 lineto
41830.8 31425.2 lineto
41830.8 31612.7 lineto
41868.3 31762.7 lineto
41905.8 31837.7 lineto
41943.3 31875.1 lineto
42018.3 31912.6 lineto
stroke
newpath
43030.7 31125.2 moveto
42580.8 31125.2 lineto
stroke
newpath
42805.7 31125.2 moveto
42805.7 31912.6 lineto
42730.7 31800.2 lineto
42655.7 31725.2 lineto
42580.8 31687.7 lineto
stroke
newpath
43405.7 31125.2 moveto
43555.6 31125.2 lineto
43630.6 31162.7 lineto
43668.1 31200.2 lineto
43743.1 31312.7 lineto
43780.6 31462.7 lineto
43780.6 31762.7 lineto
43743.1 31837.7 lineto
43705.6 31875.1 lineto
43630.6 31912.6 lineto
43480.6 31912.6 lineto
43405.7 31875.1 lineto
43368.2 31837.7 lineto
43330.7 31762.7 lineto
43330.7 31575.2 lineto
43368.2 31500.2 lineto
43405.7 31462.7 lineto
43480.6 31425.2 lineto
43630.6 31425.2 lineto
43705.6 31462.7 lineto
43743.1 31500.2 lineto
43780.6 31575.2 lineto
stroke
newpath
44043.1 31912.6 moveto
44568 31912.6 lineto
44230.5 31125.2 lineto
stroke
newpath
44830.5 31912.6 moveto
44830.5 31762.7 lineto
stroke
newpath
45130.4 31912.6 moveto
45130.4 31762.7 lineto
stroke
newpath
46292.8 30825.3 moveto
46255.3 30862.8 lineto
46180.3 30975.3 lineto
46142.8 31050.3 lineto
46105.3 31162.7 lineto
46067.8 31350.2 lineto
46067.8 31500.2 lineto
46105.3 31687.7 lineto
46142.8 31800.2 lineto
46180.3 31875.1 lineto
46255.3 31987.6 lineto
46292.8 32025.1 lineto
stroke
newpath
47005.2 31125.2 moveto
46555.3 31125.2 lineto
stroke
newpath
46780.2 31125.2 moveto
46780.2 31912.6 lineto
46705.2 31800.2 lineto
46630.2 31725.2 lineto
46555.3 31687.7 lineto
stroke
newpath
47380.2 31125.2 moveto
47530.1 31125.2 lineto
47605.1 31162.7 lineto
47642.6 31200.2 lineto
47717.6 31312.7 lineto
47755.1 31462.7 lineto
47755.1 31762.7 lineto
47717.6 31837.7 lineto
47680.1 31875.1 lineto
47605.1 31912.6 lineto
47455.1 31912.6 lineto
47380.2 31875.1 lineto
47342.7 31837.7 lineto
47305.2 31762.7 lineto
47305.2 31575.2 lineto
47342.7 31500.2 lineto
47380.2 31462.7 lineto
47455.1 31425.2 lineto
47605.1 31425.2 lineto
47680.1 31462.7 lineto
47717.6 31500.2 lineto
47755.1 31575.2 lineto
stroke
newpath
48692.5 31125.2 moveto
48692.5 31912.6 lineto
stroke
newpath
49029.9 31125.2 moveto
49029.9 31537.7 lineto
48992.5 31612.7 lineto
48917.5 31650.2 lineto
48805 31650.2 lineto
48730 31612.7 lineto
48692.5 31575.2 lineto
stroke
newpath
49517.4 31125.2 moveto
49442.4 31162.7 lineto
49404.9 31200.2 lineto
49367.4 31275.2 lineto
49367.4 31500.2 lineto
49404.9 31575.2 lineto
49442.4 31612.7 lineto
49517.4 31650.2 lineto
49629.9 31650.2 lineto
49704.9 31612.7 lineto
49742.4 31575.2 lineto
49779.9 31500.2 lineto
49779.9 31275.2 lineto
49742.4 31200.2 lineto
49704.9 31162.7 lineto
49629.9 31125.2 lineto
49517.4 31125.2 lineto
stroke
newpath
50229.8 31125.2 moveto
50154.8 31162.7 lineto
50117.3 31237.7 lineto
50117.3 31912.6 lineto
stroke
newpath
50829.7 31162.7 moveto
50754.7 31125.2 lineto
50604.8 31125.2 lineto
50529.8 31162.7 lineto
50492.3 31237.7 lineto
50492.3 31537.7 lineto
50529.8 31612.7 lineto
50604.8 31650.2 lineto
50754.7 31650.2 lineto
50829.7 31612.7 lineto
50867.2 31537.7 lineto
50867.2 31462.7 lineto
50492.3 31387.7 lineto
stroke
newpath
51167.2 31162.7 moveto
51242.2 31125.2 lineto
51392.2 31125.2 lineto
51467.1 31162.7 lineto
51504.6 31237.7 lineto
51504.6 31275.2 lineto
51467.1 31350.2 lineto
51392.2 31387.7 lineto
51279.7 31387.7 lineto
51204.7 31425.2 lineto
51167.2 31500.2 lineto
51167.2 31537.7 lineto
51204.7 31612.7 lineto
51279.7 31650.2 lineto
51392.2 31650.2 lineto
51467.1 31612.7 lineto
stroke
newpath
51767.1 30825.3 moveto
51804.6 30862.8 lineto
51879.6 30975.3 lineto
51917.1 31050.3 lineto
51954.6 31162.7 lineto
51992.1 31350.2 lineto
51992.1 31500.2 lineto
51954.6 31687.7 lineto
51917.1 31800.2 lineto
51879.6 31875.1 lineto
51804.6 31987.6 lineto
51767.1 32025.1 lineto
stroke
78.7397 setlinewidth
newpath
31836.5 30835.8 moveto
31836.5 30048.4 lineto
stroke
newpath
31442.8 30442.1 moveto
32230.2 30442.1 lineto
stroke
159.968 setlinewidth
78.7405 setlinewidth
0 0 0 setrgbcolor
0 0 0 setrgbcolor
newpath
33656.9 30085.9 moveto
33206.9 30085.9 lineto
stroke
newpath
33431.9 30085.9 moveto
33431.9 30873.3 lineto
33356.9 30760.8 lineto
33281.9 30685.8 lineto
33206.9 30648.3 lineto
stroke
newpath
33994.3 30160.9 moveto
34031.8 30123.4 lineto
33994.3 30085.9 lineto
33956.8 30123.4 lineto
33994.3 30160.9 lineto
33994.3 30085.9 lineto
stroke
newpath
34519.3 30873.3 moveto
34594.3 30873.3 lineto
34669.2 30835.8 lineto
34706.7 30798.3 lineto
34744.2 30723.3 lineto
34781.7 30573.3 lineto
34781.7 30385.8 lineto
34744.2 30235.9 lineto
34706.7 30160.9 lineto
34669.2 30123.4 lineto
34594.3 30085.9 lineto
34519.3 30085.9 lineto
34444.3 30123.4 lineto
34406.8 30160.9 lineto
34369.3 30235.9 lineto
34331.8 30385.8 lineto
34331.8 30573.3 lineto
34369.3 30723.3 lineto
34406.8 30798.3 lineto
34444.3 30835.8 lineto
34519.3 30873.3 lineto
stroke
newpath
35269.2 30873.3 moveto
35344.2 30873.3 lineto
35419.2 30835.8 lineto
35456.6 30798.3 lineto
35494.1 30723.3 lineto
35531.6 30573.3 lineto
35531.6 30385.8 lineto
35494.1 30235.9 lineto
35456.6 30160.9 lineto
35419.2 30123.4 lineto
35344.2 30085.9 lineto
35269.2 30085.9 lineto
35194.2 30123.4 lineto
35156.7 30160.9 lineto
35119.2 30235.9 lineto
35081.7 30385.8 lineto
35081.7 30573.3 lineto
35119.2 30723.3 lineto
35156.7 30798.3 lineto
35194.2 30835.8 lineto
35269.2 30873.3 lineto
stroke
newpath
36019.1 30873.3 moveto
36094.1 30873.3 lineto
36169.1 30835.8 lineto
36206.6 30798.3 lineto
36244 30723.3 lineto
36281.5 30573.3 lineto
36281.5 30385.8 lineto
36244 30235.9 lineto
36206.6 30160.9 lineto
36169.1 30123.4 lineto
36094.1 30085.9 lineto
36019.1 30085.9 lineto
35944.1 30123.4 lineto
35906.6 30160.9 lineto
35869.1 30235.9 lineto
35831.6 30385.8 lineto
35831.6 30573.3 lineto
35869.1 30723.3 lineto
35906.6 30798.3 lineto
35944.1 30835.8 lineto
36019.1 30873.3 lineto
stroke
newpath
36619 30085.9 moveto
36619 30610.8 lineto
stroke
newpath
36619 30535.8 moveto
36656.5 30573.3 lineto
36731.5 30610.8 lineto
36844 30610.8 lineto
36919 30573.3 lineto
36956.5 30498.3 lineto
36956.5 30085.9 lineto
stroke
newpath
36956.5 30498.3 moveto
36994 30573.3 lineto
37068.9 30610.8 lineto
37181.4 30610.8 lineto
37256.4 30573.3 lineto
37293.9 30498.3 lineto
37293.9 30085.9 lineto
stroke
newpath
37668.9 30085.9 moveto
37668.9 30610.8 lineto
stroke
newpath
37668.9 30535.8 moveto
37706.4 30573.3 lineto
37781.4 30610.8 lineto
37893.8 30610.8 lineto
37968.8 30573.3 lineto
38006.3 30498.3 lineto
38006.3 30085.9 lineto
stroke
newpath
38006.3 30498.3 moveto
38043.8 30573.3 lineto
38118.8 30610.8 lineto
38231.3 30610.8 lineto
38306.3 30573.3 lineto
38343.8 30498.3 lineto
38343.8 30085.9 lineto
stroke
newpath
39881.1 30910.8 moveto
39206.2 29898.4 lineto
stroke
newpath
40893.5 30873.3 moveto
40968.5 30873.3 lineto
41043.4 30835.8 lineto
41080.9 30798.3 lineto
41118.4 30723.3 lineto
41155.9 30573.3 lineto
41155.9 30385.8 lineto
41118.4 30235.9 lineto
41080.9 30160.9 lineto
41043.4 30123.4 lineto
40968.5 30085.9 lineto
40893.5 30085.9 lineto
40818.5 30123.4 lineto
40781 30160.9 lineto
40743.5 30235.9 lineto
40706 30385.8 lineto
40706 30573.3 lineto
40743.5 30723.3 lineto
40781 30798.3 lineto
40818.5 30835.8 lineto
40893.5 30873.3 lineto
stroke
newpath
41493.4 30160.9 moveto
41530.9 30123.4 lineto
41493.4 30085.9 lineto
41455.9 30123.4 lineto
41493.4 30160.9 lineto
41493.4 30085.9 lineto
stroke
newpath
42018.3 30873.3 moveto
42093.3 30873.3 lineto
42168.3 30835.8 lineto
42205.8 30798.3 lineto
42243.3 30723.3 lineto
42280.8 30573.3 lineto
42280.8 30385.8 lineto
42243.3 30235.9 lineto
42205.8 30160.9 lineto
42168.3 30123.4 lineto
42093.3 30085.9 lineto
42018.3 30085.9 lineto
41943.3 30123.4 lineto
41905.8 30160.9 lineto
41868.3 30235.9 lineto
41830.8 30385.8 lineto
41830.8 30573.3 lineto
41868.3 30723.3 lineto
41905.8 30798.3 lineto
41943.3 30835.8 lineto
42018.3 30873.3 lineto
stroke
newpath
42543.3 30873.3 moveto
43030.7 30873.3 lineto
42768.2 30573.3 lineto
42880.7 30573.3 lineto
42955.7 30535.8 lineto
42993.2 30498.3 lineto
43030.7 30423.3 lineto
43030.7 30235.9 lineto
42993.2 30160.9 lineto
42955.7 30123.4 lineto
42880.7 30085.9 lineto
42655.7 30085.9 lineto
42580.8 30123.4 lineto
42543.3 30160.9 lineto
stroke
newpath
43405.7 30085.9 moveto
43555.6 30085.9 lineto
43630.6 30123.4 lineto
43668.1 30160.9 lineto
43743.1 30273.3 lineto
43780.6 30423.3 lineto
43780.6 30723.3 lineto
43743.1 30798.3 lineto
43705.6 30835.8 lineto
43630.6 30873.3 lineto
43480.6 30873.3 lineto
43405.7 30835.8 lineto
43368.2 30798.3 lineto
43330.7 30723.3 lineto
43330.7 30535.8 lineto
43368.2 30460.8 lineto
43405.7 30423.3 lineto
43480.6 30385.8 lineto
43630.6 30385.8 lineto
43705.6 30423.3 lineto
43743.1 30460.8 lineto
43780.6 30535.8 lineto
stroke
newpath
44455.5 30610.8 moveto
44455.5 30085.9 lineto
stroke
newpath
44268 30910.8 moveto
44080.6 30348.3 lineto
44568 30348.3 lineto
stroke
newpath
44830.5 30873.3 moveto
44830.5 30723.3 lineto
stroke
newpath
45130.4 30873.3 moveto
45130.4 30723.3 lineto
stroke
newpath
46292.8 29785.9 moveto
46255.3 29823.4 lineto
46180.3 29935.9 lineto
46142.8 30010.9 lineto
46105.3 30123.4 lineto
46067.8 30310.8 lineto
46067.8 30460.8 lineto
46105.3 30648.3 lineto
46142.8 30760.8 lineto
46180.3 30835.8 lineto
46255.3 30948.3 lineto
46292.8 30985.8 lineto
stroke
newpath
47005.2 30085.9 moveto
46555.3 30085.9 lineto
stroke
newpath
46780.2 30085.9 moveto
46780.2 30873.3 lineto
46705.2 30760.8 lineto
46630.2 30685.8 lineto
46555.3 30648.3 lineto
stroke
newpath
47492.6 30873.3 moveto
47567.6 30873.3 lineto
47642.6 30835.8 lineto
47680.1 30798.3 lineto
47717.6 30723.3 lineto
47755.1 30573.3 lineto
47755.1 30385.8 lineto
47717.6 30235.9 lineto
47680.1 30160.9 lineto
47642.6 30123.4 lineto
47567.6 30085.9 lineto
47492.6 30085.9 lineto
47417.6 30123.4 lineto
47380.2 30160.9 lineto
47342.7 30235.9 lineto
47305.2 30385.8 lineto
47305.2 30573.3 lineto
47342.7 30723.3 lineto
47380.2 30798.3 lineto
47417.6 30835.8 lineto
47492.6 30873.3 lineto
stroke
newpath
48692.5 30085.9 moveto
48692.5 30873.3 lineto
stroke
newpath
49029.9 30085.9 moveto
49029.9 30498.3 lineto
48992.5 30573.3 lineto
48917.5 30610.8 lineto
48805 30610.8 lineto
48730 30573.3 lineto
48692.5 30535.8 lineto
stroke
newpath
49517.4 30085.9 moveto
49442.4 30123.4 lineto
49404.9 30160.9 lineto
49367.4 30235.9 lineto
49367.4 30460.8 lineto
49404.9 30535.8 lineto
49442.4 30573.3 lineto
49517.4 30610.8 lineto
49629.9 30610.8 lineto
49704.9 30573.3 lineto
49742.4 30535.8 lineto
49779.9 30460.8 lineto
49779.9 30235.9 lineto
49742.4 30160.9 lineto
49704.9 30123.4 lineto
49629.9 30085.9 lineto
49517.4 30085.9 lineto
stroke
newpath
50229.8 30085.9 moveto
50154.8 30123.4 lineto
50117.3 30198.4 lineto
50117.3 30873.3 lineto
stroke
newpath
50829.7 30123.4 moveto
50754.7 30085.9 lineto
50604.8 30085.9 lineto
50529.8 30123.4 lineto
50492.3 30198.4 lineto
50492.3 30498.3 lineto
50529.8 30573.3 lineto
50604.8 30610.8 lineto
50754.7 30610.8 lineto
50829.7 30573.3 lineto
50867.2 30498.3 lineto
50867.2 30423.3 lineto
50492.3 30348.3 lineto
stroke
newpath
51167.2 30123.4 moveto
51242.2 30085.9 lineto
51392.2 30085.9 lineto
51467.1 30123.4 lineto
51504.6 30198.4 lineto
51504.6 30235.9 lineto
51467.1 30310.8 lineto
51392.2 30348.3 lineto
51279.7 30348.3 lineto
51204.7 30385.8 lineto
51167.2 30460.8 lineto
51167.2 30498.3 lineto
51204.7 30573.3 lineto
51279.7 30610.8 lineto
51392.2 30610.8 lineto
51467.1 30573.3 lineto
stroke
newpath
51767.1 29785.9 moveto
51804.6 29823.4 lineto
51879.6 29935.9 lineto
51917.1 30010.9 lineto
51954.6 30123.4 lineto
51992.1 30310.8 lineto
51992.1 30460.8 lineto
51954.6 30648.3 lineto
51917.1 30760.8 lineto
51879.6 30835.8 lineto
51804.6 30948.3 lineto
51767.1 30985.8 lineto
stroke
78.7397 setlinewidth
newpath
32114.9 28903.8 moveto
32114.9 29460.6 lineto
31558.1 29460.6 lineto
31558.1 28903.8 lineto
32114.9 28903.8 lineto
poly0
159.968 setlinewidth
78.7405 setlinewidth
0 0 0 setrgbcolor
0 0 0 setrgbcolor
newpath
33656.9 28826 moveto
33206.9 28826 lineto
stroke
newpath
33431.9 28826 moveto
33431.9 29613.4 lineto
33356.9 29500.9 lineto
33281.9 29426 lineto
33206.9 29388.5 lineto
stroke
newpath
33994.3 28901 moveto
34031.8 28863.5 lineto
33994.3 28826 lineto
33956.8 28863.5 lineto
33994.3 28901 lineto
33994.3 28826 lineto
stroke
newpath
34781.7 28826 moveto
34331.8 28826 lineto
stroke
newpath
34556.8 28826 moveto
34556.8 29613.4 lineto
34481.8 29500.9 lineto
34406.8 29426 lineto
34331.8 29388.5 lineto
stroke
newpath
35269.2 29613.4 moveto
35344.2 29613.4 lineto
35419.2 29575.9 lineto
35456.6 29538.4 lineto
35494.1 29463.5 lineto
35531.6 29313.5 lineto
35531.6 29126 lineto
35494.1 28976 lineto
35456.6 28901 lineto
35419.2 28863.5 lineto
35344.2 28826 lineto
35269.2 28826 lineto
35194.2 28863.5 lineto
35156.7 28901 lineto
35119.2 28976 lineto
35081.7 29126 lineto
35081.7 29313.5 lineto
35119.2 29463.5 lineto
35156.7 29538.4 lineto
35194.2 29575.9 lineto
35269.2 29613.4 lineto
stroke
newpath
36019.1 29613.4 moveto
36094.1 29613.4 lineto
36169.1 29575.9 lineto
36206.6 29538.4 lineto
36244 29463.5 lineto
36281.5 29313.5 lineto
36281.5 29126 lineto
36244 28976 lineto
36206.6 28901 lineto
36169.1 28863.5 lineto
36094.1 28826 lineto
36019.1 28826 lineto
35944.1 28863.5 lineto
35906.6 28901 lineto
35869.1 28976 lineto
35831.6 29126 lineto
35831.6 29313.5 lineto
35869.1 29463.5 lineto
35906.6 29538.4 lineto
35944.1 29575.9 lineto
36019.1 29613.4 lineto
stroke
newpath
36619 28826 moveto
36619 29351 lineto
stroke
newpath
36619 29276 moveto
36656.5 29313.5 lineto
36731.5 29351 lineto
36844 29351 lineto
36919 29313.5 lineto
36956.5 29238.5 lineto
36956.5 28826 lineto
stroke
newpath
36956.5 29238.5 moveto
36994 29313.5 lineto
37068.9 29351 lineto
37181.4 29351 lineto
37256.4 29313.5 lineto
37293.9 29238.5 lineto
37293.9 28826 lineto
stroke
newpath
37668.9 28826 moveto
37668.9 29351 lineto
stroke
newpath
37668.9 29276 moveto
37706.4 29313.5 lineto
37781.4 29351 lineto
37893.8 29351 lineto
37968.8 29313.5 lineto
38006.3 29238.5 lineto
38006.3 28826 lineto
stroke
newpath
38006.3 29238.5 moveto
38043.8 29313.5 lineto
38118.8 29351 lineto
38231.3 29351 lineto
38306.3 29313.5 lineto
38343.8 29238.5 lineto
38343.8 28826 lineto
stroke
newpath
39881.1 29650.9 moveto
39206.2 28638.6 lineto
stroke
newpath
40893.5 29613.4 moveto
40968.5 29613.4 lineto
41043.4 29575.9 lineto
41080.9 29538.4 lineto
41118.4 29463.5 lineto
41155.9 29313.5 lineto
41155.9 29126 lineto
41118.4 28976 lineto
41080.9 28901 lineto
41043.4 28863.5 lineto
40968.5 28826 lineto
40893.5 28826 lineto
40818.5 28863.5 lineto
40781 28901 lineto
40743.5 28976 lineto
40706 29126 lineto
40706 29313.5 lineto
40743.5 29463.5 lineto
40781 29538.4 lineto
40818.5 29575.9 lineto
40893.5 29613.4 lineto
stroke
newpath
41493.4 28901 moveto
41530.9 28863.5 lineto
41493.4 28826 lineto
41455.9 28863.5 lineto
41493.4 28901 lineto
41493.4 28826 lineto
stroke
newpath
42018.3 29613.4 moveto
42093.3 29613.4 lineto
42168.3 29575.9 lineto
42205.8 29538.4 lineto
42243.3 29463.5 lineto
42280.8 29313.5 lineto
42280.8 29126 lineto
42243.3 28976 lineto
42205.8 28901 lineto
42168.3 28863.5 lineto
42093.3 28826 lineto
42018.3 28826 lineto
41943.3 28863.5 lineto
41905.8 28901 lineto
41868.3 28976 lineto
41830.8 29126 lineto
41830.8 29313.5 lineto
41868.3 29463.5 lineto
41905.8 29538.4 lineto
41943.3 29575.9 lineto
42018.3 29613.4 lineto
stroke
newpath
42955.7 29351 moveto
42955.7 28826 lineto
stroke
newpath
42768.2 29650.9 moveto
42580.8 29088.5 lineto
43068.2 29088.5 lineto
stroke
newpath
43293.2 29613.4 moveto
43780.6 29613.4 lineto
43518.1 29313.5 lineto
43630.6 29313.5 lineto
43705.6 29276 lineto
43743.1 29238.5 lineto
43780.6 29163.5 lineto
43780.6 28976 lineto
43743.1 28901 lineto
43705.6 28863.5 lineto
43630.6 28826 lineto
43405.7 28826 lineto
43330.7 28863.5 lineto
43293.2 28901 lineto
stroke
newpath
44043.1 29613.4 moveto
44530.5 29613.4 lineto
44268 29313.5 lineto
44380.5 29313.5 lineto
44455.5 29276 lineto
44493 29238.5 lineto
44530.5 29163.5 lineto
44530.5 28976 lineto
44493 28901 lineto
44455.5 28863.5 lineto
44380.5 28826 lineto
44155.6 28826 lineto
44080.6 28863.5 lineto
44043.1 28901 lineto
stroke
newpath
44830.5 29613.4 moveto
44830.5 29463.5 lineto
stroke
newpath
45130.4 29613.4 moveto
45130.4 29463.5 lineto
stroke
newpath
46292.8 28526.1 moveto
46255.3 28563.6 lineto
46180.3 28676 lineto
46142.8 28751 lineto
46105.3 28863.5 lineto
46067.8 29051 lineto
46067.8 29201 lineto
46105.3 29388.5 lineto
46142.8 29500.9 lineto
46180.3 29575.9 lineto
46255.3 29688.4 lineto
46292.8 29725.9 lineto
stroke
newpath
46555.3 29538.4 moveto
46592.8 29575.9 lineto
46667.7 29613.4 lineto
46855.2 29613.4 lineto
46930.2 29575.9 lineto
46967.7 29538.4 lineto
47005.2 29463.5 lineto
47005.2 29388.5 lineto
46967.7 29276 lineto
46517.8 28826 lineto
47005.2 28826 lineto
stroke
newpath
47942.6 28826 moveto
47942.6 29613.4 lineto
stroke
newpath
48280 28826 moveto
48280 29238.5 lineto
48242.5 29313.5 lineto
48167.6 29351 lineto
48055.1 29351 lineto
47980.1 29313.5 lineto
47942.6 29276 lineto
stroke
newpath
48767.5 28826 moveto
48692.5 28863.5 lineto
48655 28901 lineto
48617.5 28976 lineto
48617.5 29201 lineto
48655 29276 lineto
48692.5 29313.5 lineto
48767.5 29351 lineto
48880 29351 lineto
48955 29313.5 lineto
48992.5 29276 lineto
49029.9 29201 lineto
49029.9 28976 lineto
48992.5 28901 lineto
48955 28863.5 lineto
48880 28826 lineto
48767.5 28826 lineto
stroke
newpath
49479.9 28826 moveto
49404.9 28863.5 lineto
49367.4 28938.5 lineto
49367.4 29613.4 lineto
stroke
newpath
50079.8 28863.5 moveto
50004.8 28826 lineto
49854.8 28826 lineto
49779.9 28863.5 lineto
49742.4 28938.5 lineto
49742.4 29238.5 lineto
49779.9 29313.5 lineto
49854.8 29351 lineto
50004.8 29351 lineto
50079.8 29313.5 lineto
50117.3 29238.5 lineto
50117.3 29163.5 lineto
49742.4 29088.5 lineto
stroke
newpath
50417.3 28863.5 moveto
50492.3 28826 lineto
50642.2 28826 lineto
50717.2 28863.5 lineto
50754.7 28938.5 lineto
50754.7 28976 lineto
50717.2 29051 lineto
50642.2 29088.5 lineto
50529.8 29088.5 lineto
50454.8 29126 lineto
50417.3 29201 lineto
50417.3 29238.5 lineto
50454.8 29313.5 lineto
50529.8 29351 lineto
50642.2 29351 lineto
50717.2 29313.5 lineto
stroke
newpath
51017.2 28526.1 moveto
51054.7 28563.6 lineto
51129.7 28676 lineto
51167.2 28751 lineto
51204.7 28863.5 lineto
51242.2 29051 lineto
51242.2 29201 lineto
51204.7 29388.5 lineto
51167.2 29500.9 lineto
51129.7 29575.9 lineto
51054.7 29688.4 lineto
51017.2 29725.9 lineto
stroke
77.5847 setlinewidth
newpath
31842.3 27534.5 moveto
32230.2 27922.4 lineto
31842.3 28310.3 lineto
31454.3 27922.4 lineto
31842.3 27534.5 lineto
poly0
159.968 setlinewidth
78.7405 setlinewidth
0 0 0 setrgbcolor
0 0 0 setrgbcolor
newpath
33394.4 28353.6 moveto
33469.4 28353.6 lineto
33544.4 28316.1 lineto
33581.9 28278.6 lineto
33619.4 28203.6 lineto
33656.9 28053.6 lineto
33656.9 27866.2 lineto
33619.4 27716.2 lineto
33581.9 27641.2 lineto
33544.4 27603.7 lineto
33469.4 27566.2 lineto
33394.4 27566.2 lineto
33319.4 27603.7 lineto
33281.9 27641.2 lineto
33244.4 27716.2 lineto
33206.9 27866.2 lineto
33206.9 28053.6 lineto
33244.4 28203.6 lineto
33281.9 28278.6 lineto
33319.4 28316.1 lineto
33394.4 28353.6 lineto
stroke
newpath
33994.3 27641.2 moveto
34031.8 27603.7 lineto
33994.3 27566.2 lineto
33956.8 27603.7 lineto
33994.3 27641.2 lineto
33994.3 27566.2 lineto
stroke
newpath
34406.8 27566.2 moveto
34556.8 27566.2 lineto
34631.7 27603.7 lineto
34669.2 27641.2 lineto
34744.2 27753.7 lineto
34781.7 27903.6 lineto
34781.7 28203.6 lineto
34744.2 28278.6 lineto
34706.7 28316.1 lineto
34631.7 28353.6 lineto
34481.8 28353.6 lineto
34406.8 28316.1 lineto
34369.3 28278.6 lineto
34331.8 28203.6 lineto
34331.8 28016.1 lineto
34369.3 27941.1 lineto
34406.8 27903.6 lineto
34481.8 27866.2 lineto
34631.7 27866.2 lineto
34706.7 27903.6 lineto
34744.2 27941.1 lineto
34781.7 28016.1 lineto
stroke
newpath
35044.2 28353.6 moveto
35569.1 28353.6 lineto
35231.7 27566.2 lineto
stroke
newpath
36019.1 28353.6 moveto
36094.1 28353.6 lineto
36169.1 28316.1 lineto
36206.6 28278.6 lineto
36244 28203.6 lineto
36281.5 28053.6 lineto
36281.5 27866.2 lineto
36244 27716.2 lineto
36206.6 27641.2 lineto
36169.1 27603.7 lineto
36094.1 27566.2 lineto
36019.1 27566.2 lineto
35944.1 27603.7 lineto
35906.6 27641.2 lineto
35869.1 27716.2 lineto
35831.6 27866.2 lineto
35831.6 28053.6 lineto
35869.1 28203.6 lineto
35906.6 28278.6 lineto
35944.1 28316.1 lineto
36019.1 28353.6 lineto
stroke
newpath
36619 27566.2 moveto
36619 28091.1 lineto
stroke
newpath
36619 28016.1 moveto
36656.5 28053.6 lineto
36731.5 28091.1 lineto
36844 28091.1 lineto
36919 28053.6 lineto
36956.5 27978.6 lineto
36956.5 27566.2 lineto
stroke
newpath
36956.5 27978.6 moveto
36994 28053.6 lineto
37068.9 28091.1 lineto
37181.4 28091.1 lineto
37256.4 28053.6 lineto
37293.9 27978.6 lineto
37293.9 27566.2 lineto
stroke
newpath
37668.9 27566.2 moveto
37668.9 28091.1 lineto
stroke
newpath
37668.9 28016.1 moveto
37706.4 28053.6 lineto
37781.4 28091.1 lineto
37893.8 28091.1 lineto
37968.8 28053.6 lineto
38006.3 27978.6 lineto
38006.3 27566.2 lineto
stroke
newpath
38006.3 27978.6 moveto
38043.8 28053.6 lineto
38118.8 28091.1 lineto
38231.3 28091.1 lineto
38306.3 28053.6 lineto
38343.8 27978.6 lineto
38343.8 27566.2 lineto
stroke
newpath
39881.1 28391.1 moveto
39206.2 27378.7 lineto
stroke
newpath
40893.5 28353.6 moveto
40968.5 28353.6 lineto
41043.4 28316.1 lineto
41080.9 28278.6 lineto
41118.4 28203.6 lineto
41155.9 28053.6 lineto
41155.9 27866.2 lineto
41118.4 27716.2 lineto
41080.9 27641.2 lineto
41043.4 27603.7 lineto
40968.5 27566.2 lineto
40893.5 27566.2 lineto
40818.5 27603.7 lineto
40781 27641.2 lineto
40743.5 27716.2 lineto
40706 27866.2 lineto
40706 28053.6 lineto
40743.5 28203.6 lineto
40781 28278.6 lineto
40818.5 28316.1 lineto
40893.5 28353.6 lineto
stroke
newpath
41493.4 27641.2 moveto
41530.9 27603.7 lineto
41493.4 27566.2 lineto
41455.9 27603.7 lineto
41493.4 27641.2 lineto
41493.4 27566.2 lineto
stroke
newpath
42018.3 28353.6 moveto
42093.3 28353.6 lineto
42168.3 28316.1 lineto
42205.8 28278.6 lineto
42243.3 28203.6 lineto
42280.8 28053.6 lineto
42280.8 27866.2 lineto
42243.3 27716.2 lineto
42205.8 27641.2 lineto
42168.3 27603.7 lineto
42093.3 27566.2 lineto
42018.3 27566.2 lineto
41943.3 27603.7 lineto
41905.8 27641.2 lineto
41868.3 27716.2 lineto
41830.8 27866.2 lineto
41830.8 28053.6 lineto
41868.3 28203.6 lineto
41905.8 28278.6 lineto
41943.3 28316.1 lineto
42018.3 28353.6 lineto
stroke
newpath
42543.3 28353.6 moveto
43030.7 28353.6 lineto
42768.2 28053.6 lineto
42880.7 28053.6 lineto
42955.7 28016.1 lineto
42993.2 27978.6 lineto
43030.7 27903.6 lineto
43030.7 27716.2 lineto
42993.2 27641.2 lineto
42955.7 27603.7 lineto
42880.7 27566.2 lineto
42655.7 27566.2 lineto
42580.8 27603.7 lineto
42543.3 27641.2 lineto
stroke
newpath
43480.6 28016.1 moveto
43405.7 28053.6 lineto
43368.2 28091.1 lineto
43330.7 28166.1 lineto
43330.7 28203.6 lineto
43368.2 28278.6 lineto
43405.7 28316.1 lineto
43480.6 28353.6 lineto
43630.6 28353.6 lineto
43705.6 28316.1 lineto
43743.1 28278.6 lineto
43780.6 28203.6 lineto
43780.6 28166.1 lineto
43743.1 28091.1 lineto
43705.6 28053.6 lineto
43630.6 28016.1 lineto
43480.6 28016.1 lineto
43405.7 27978.6 lineto
43368.2 27941.1 lineto
43330.7 27866.2 lineto
43330.7 27716.2 lineto
43368.2 27641.2 lineto
43405.7 27603.7 lineto
43480.6 27566.2 lineto
43630.6 27566.2 lineto
43705.6 27603.7 lineto
43743.1 27641.2 lineto
43780.6 27716.2 lineto
43780.6 27866.2 lineto
43743.1 27941.1 lineto
43705.6 27978.6 lineto
43630.6 28016.1 lineto
stroke
newpath
44080.6 28278.6 moveto
44118.1 28316.1 lineto
44193.1 28353.6 lineto
44380.5 28353.6 lineto
44455.5 28316.1 lineto
44493 28278.6 lineto
44530.5 28203.6 lineto
44530.5 28128.6 lineto
44493 28016.1 lineto
44043.1 27566.2 lineto
44530.5 27566.2 lineto
stroke
newpath
44830.5 28353.6 moveto
44830.5 28203.6 lineto
stroke
newpath
45130.4 28353.6 moveto
45130.4 28203.6 lineto
stroke
newpath
46292.8 27266.2 moveto
46255.3 27303.7 lineto
46180.3 27416.2 lineto
46142.8 27491.2 lineto
46105.3 27603.7 lineto
46067.8 27791.2 lineto
46067.8 27941.1 lineto
46105.3 28128.6 lineto
46142.8 28241.1 lineto
46180.3 28316.1 lineto
46255.3 28428.6 lineto
46292.8 28466.1 lineto
stroke
newpath
46930.2 28091.1 moveto
46930.2 27566.2 lineto
stroke
newpath
46742.7 28391.1 moveto
46555.3 27828.7 lineto
47042.7 27828.7 lineto
stroke
newpath
47492.6 28353.6 moveto
47567.6 28353.6 lineto
47642.6 28316.1 lineto
47680.1 28278.6 lineto
47717.6 28203.6 lineto
47755.1 28053.6 lineto
47755.1 27866.2 lineto
47717.6 27716.2 lineto
47680.1 27641.2 lineto
47642.6 27603.7 lineto
47567.6 27566.2 lineto
47492.6 27566.2 lineto
47417.6 27603.7 lineto
47380.2 27641.2 lineto
47342.7 27716.2 lineto
47305.2 27866.2 lineto
47305.2 28053.6 lineto
47342.7 28203.6 lineto
47380.2 28278.6 lineto
47417.6 28316.1 lineto
47492.6 28353.6 lineto
stroke
newpath
48692.5 27566.2 moveto
48692.5 28353.6 lineto
stroke
newpath
49029.9 27566.2 moveto
49029.9 27978.6 lineto
48992.5 28053.6 lineto
48917.5 28091.1 lineto
48805 28091.1 lineto
48730 28053.6 lineto
48692.5 28016.1 lineto
stroke
newpath
49517.4 27566.2 moveto
49442.4 27603.7 lineto
49404.9 27641.2 lineto
49367.4 27716.2 lineto
49367.4 27941.1 lineto
49404.9 28016.1 lineto
49442.4 28053.6 lineto
49517.4 28091.1 lineto
49629.9 28091.1 lineto
49704.9 28053.6 lineto
49742.4 28016.1 lineto
49779.9 27941.1 lineto
49779.9 27716.2 lineto
49742.4 27641.2 lineto
49704.9 27603.7 lineto
49629.9 27566.2 lineto
49517.4 27566.2 lineto
stroke
newpath
50229.8 27566.2 moveto
50154.8 27603.7 lineto
50117.3 27678.7 lineto
50117.3 28353.6 lineto
stroke
newpath
50829.7 27603.7 moveto
50754.7 27566.2 lineto
50604.8 27566.2 lineto
50529.8 27603.7 lineto
50492.3 27678.7 lineto
50492.3 27978.6 lineto
50529.8 28053.6 lineto
50604.8 28091.1 lineto
50754.7 28091.1 lineto
50829.7 28053.6 lineto
50867.2 27978.6 lineto
50867.2 27903.6 lineto
50492.3 27828.7 lineto
stroke
newpath
51167.2 27603.7 moveto
51242.2 27566.2 lineto
51392.2 27566.2 lineto
51467.1 27603.7 lineto
51504.6 27678.7 lineto
51504.6 27716.2 lineto
51467.1 27791.2 lineto
51392.2 27828.7 lineto
51279.7 27828.7 lineto
51204.7 27866.2 lineto
51167.2 27941.1 lineto
51167.2 27978.6 lineto
51204.7 28053.6 lineto
51279.7 28091.1 lineto
51392.2 28091.1 lineto
51467.1 28053.6 lineto
stroke
newpath
51767.1 27266.2 moveto
51804.6 27303.7 lineto
51879.6 27416.2 lineto
51917.1 27491.2 lineto
51954.6 27603.7 lineto
51992.1 27791.2 lineto
51992.1 27941.1 lineto
51954.6 28128.6 lineto
51917.1 28241.1 lineto
51879.6 28316.1 lineto
51804.6 28428.6 lineto
51767.1 28466.1 lineto
stroke
newpath
53191.9 27266.2 moveto
53154.4 27303.7 lineto
53079.4 27416.2 lineto
53041.9 27491.2 lineto
53004.5 27603.7 lineto
52967 27791.2 lineto
52967 27941.1 lineto
53004.5 28128.6 lineto
53041.9 28241.1 lineto
53079.4 28316.1 lineto
53154.4 28428.6 lineto
53191.9 28466.1 lineto
stroke
newpath
53491.9 28091.1 moveto
53491.9 27566.2 lineto
stroke
newpath
53491.9 28016.1 moveto
53529.4 28053.6 lineto
53604.4 28091.1 lineto
53716.9 28091.1 lineto
53791.9 28053.6 lineto
53829.3 27978.6 lineto
53829.3 27566.2 lineto
stroke
newpath
54316.8 27566.2 moveto
54241.8 27603.7 lineto
54204.3 27641.2 lineto
54166.8 27716.2 lineto
54166.8 27941.1 lineto
54204.3 28016.1 lineto
54241.8 28053.6 lineto
54316.8 28091.1 lineto
54429.3 28091.1 lineto
54504.3 28053.6 lineto
54541.8 28016.1 lineto
54579.3 27941.1 lineto
54579.3 27716.2 lineto
54541.8 27641.2 lineto
54504.3 27603.7 lineto
54429.3 27566.2 lineto
54316.8 27566.2 lineto
stroke
newpath
54804.2 28091.1 moveto
55104.2 28091.1 lineto
stroke
newpath
54916.7 28353.6 moveto
54916.7 27678.7 lineto
54954.2 27603.7 lineto
55029.2 27566.2 lineto
55104.2 27566.2 lineto
stroke
newpath
55966.6 28091.1 moveto
55966.6 27303.7 lineto
stroke
newpath
55966.6 28053.6 moveto
56041.6 28091.1 lineto
56191.6 28091.1 lineto
56266.5 28053.6 lineto
56304 28016.1 lineto
56341.5 27941.1 lineto
56341.5 27716.2 lineto
56304 27641.2 lineto
56266.5 27603.7 lineto
56191.6 27566.2 lineto
56041.6 27566.2 lineto
55966.6 27603.7 lineto
stroke
newpath
56791.5 27566.2 moveto
56716.5 27603.7 lineto
56679 27678.7 lineto
56679 28353.6 lineto
stroke
newpath
57428.9 27566.2 moveto
57428.9 27978.6 lineto
57391.4 28053.6 lineto
57316.4 28091.1 lineto
57166.4 28091.1 lineto
57091.4 28053.6 lineto
stroke
newpath
57428.9 27603.7 moveto
57353.9 27566.2 lineto
57166.4 27566.2 lineto
57091.4 27603.7 lineto
57053.9 27678.7 lineto
57053.9 27753.7 lineto
57091.4 27828.7 lineto
57166.4 27866.2 lineto
57353.9 27866.2 lineto
57428.9 27903.6 lineto
stroke
newpath
57691.4 28091.1 moveto
57991.3 28091.1 lineto
stroke
newpath
57803.8 28353.6 moveto
57803.8 27678.7 lineto
57841.3 27603.7 lineto
57916.3 27566.2 lineto
57991.3 27566.2 lineto
stroke
newpath
58553.8 27603.7 moveto
58478.8 27566.2 lineto
58328.8 27566.2 lineto
58253.8 27603.7 lineto
58216.3 27678.7 lineto
58216.3 27978.6 lineto
58253.8 28053.6 lineto
58328.8 28091.1 lineto
58478.8 28091.1 lineto
58553.8 28053.6 lineto
58591.3 27978.6 lineto
58591.3 27903.6 lineto
58216.3 27828.7 lineto
stroke
newpath
59266.2 27566.2 moveto
59266.2 28353.6 lineto
stroke
newpath
59266.2 27603.7 moveto
59191.2 27566.2 lineto
59041.2 27566.2 lineto
58966.2 27603.7 lineto
58928.7 27641.2 lineto
58891.2 27716.2 lineto
58891.2 27941.1 lineto
58928.7 28016.1 lineto
58966.2 28053.6 lineto
59041.2 28091.1 lineto
59191.2 28091.1 lineto
59266.2 28053.6 lineto
stroke
newpath
59566.1 27266.2 moveto
59603.6 27303.7 lineto
59678.6 27416.2 lineto
59716.1 27491.2 lineto
59753.6 27603.7 lineto
59791.1 27791.2 lineto
59791.1 27941.1 lineto
59753.6 28128.6 lineto
59716.1 28241.1 lineto
59678.6 28316.1 lineto
59603.6 28428.6 lineto
59566.1 28466.1 lineto
stroke
showpage
grestore
%%EOF
