%!PS-Adobe-3.0
%%Creator: PCBNEW
%%CreationDate: Thu Feb 18 08:56:56 2021
%%Title: ()
%%Pages: 1
%%PageOrder: Ascend
%%BoundingBox: 0 0 596 842
%%DocumentMedia: A4 595 842 0 () ()
%%Orientation: Landscape
%%EndComments
%%BeginProlog
/line { newpath moveto lineto stroke } bind def
/cir0 { newpath 0 360 arc stroke } bind def
/cir1 { newpath 0 360 arc gsave fill grestore stroke } bind def
/cir2 { newpath 0 360 arc gsave fill grestore stroke } bind def
/arc0 { newpath arc stroke } bind def
/arc1 { newpath 4 index 4 index moveto arc closepath gsave fill
    grestore stroke } bind def
/arc2 { newpath 4 index 4 index moveto arc closepath gsave fill
    grestore stroke } bind def
/poly0 { stroke } bind def
/poly1 { closepath gsave fill grestore stroke } bind def
/poly2 { closepath gsave fill grestore stroke } bind def
/rect0 { rectstroke } bind def
/rect1 { rectfill } bind def
/rect2 { rectfill } bind def
/linemode0 { 0 setlinecap 0 setlinejoin 0 setlinewidth } bind def
/linemode1 { 1 setlinecap 1 setlinejoin } bind def
/dashedline { [200] 100 setdash } bind def
/solidline { [] 0 setdash } bind def
/phantomshow { moveto
    /KicadFont findfont 0.000001 scalefont setfont
    show } bind def
/textshow { gsave
    findfont exch scalefont setfont concat 1 scale 0 0 moveto show
    } bind def
/reencodefont {
  findfont dup length dict begin
  { 1 index /FID ne
    { def }
    { pop pop } ifelse
  } forall
  /Encoding ISOLatin1Encoding def
  currentdict
  end } bind def
/KicadFont /Helvetica reencodefont definefont pop
/KicadFont-Bold /Helvetica-Bold reencodefont definefont pop
/KicadFont-Oblique /Helvetica-Oblique reencodefont definefont pop
/KicadFont-BoldOblique /Helvetica-BoldOblique reencodefont definefont pop
%%EndProlog
%%Page: 1 1
%%BeginPageSetup
gsave
0.0072 0.0072 scale
linemode1
82680 0 translate 90 rotate
159.968 setlinewidth
%%EndPageSetup
0 0 0 setrgbcolor
159.968 setlinewidth
newpath
32470.1 65274.5 moveto
32470.1 78072 lineto
stroke
0 0 0 setrgbcolor
33270 50077.5 799.842 90 180 arc0
0 0 0 setrgbcolor
33270 65274.5 799.842 180 270 arc0
0 0 0 setrgbcolor
35669.5 51677.2 799.842 -90 -0 arc0
0 0 0 setrgbcolor
82060.3 37680 2399.53 -90 -0 arc0
0 0 0 setrgbcolor
82060.3 78072 2399.53 -0 90 arc0
0 0 0 setrgbcolor
34869.7 37680 2399.53 180 270 arc0
0 0 0 setrgbcolor
newpath
69262.9 38479.8 moveto
69262.9 50477.5 lineto
stroke
0 0 0 setrgbcolor
68463 38479.8 799.842 180 360 arc0
0 0 0 setrgbcolor
newpath
67663.2 50477.5 moveto
67663.2 38479.8 lineto
stroke
0 0 0 setrgbcolor
68463 50477.5 799.842 -0 180 arc0
0 0 0 setrgbcolor
newpath
33270 50877.4 moveto
35669.5 50877.4 lineto
stroke
0 0 0 setrgbcolor
35669.5 63674.9 799.842 -0 90 arc0
0 0 0 setrgbcolor
34869.7 78072 2399.53 90 180 arc0
0 0 0 setrgbcolor
newpath
82060.3 35280.5 moveto
34869.7 35280.5 lineto
stroke
0 0 0 setrgbcolor
newpath
32470.1 37680 moveto
32470.1 50077.5 lineto
stroke
0 0 0 setrgbcolor
newpath
35669.5 64474.7 moveto
33270 64474.7 lineto
stroke
0 0 0 setrgbcolor
newpath
36469.3 51677.2 moveto
36469.3 63674.9 lineto
stroke
0 0 0 setrgbcolor
newpath
84459.9 37680 moveto
84459.9 78072 lineto
stroke
0 0 0 setrgbcolor
newpath
82060.3 80471.5 moveto
34869.7 80471.5 lineto
stroke
77.5847 setlinewidth
newpath
38776.9 78675.9 moveto
39552.7 77900.1 lineto
stroke
newpath
39552.7 78675.9 moveto
38776.9 77900.1 lineto
stroke
newpath
38776.9 76644.3 moveto
39552.7 75868.5 lineto
stroke
newpath
39552.7 76644.3 moveto
38776.9 75868.5 lineto
stroke
newpath
40808.5 78675.9 moveto
41584.3 77900.1 lineto
stroke
newpath
41584.3 78675.9 moveto
40808.5 77900.1 lineto
stroke
newpath
40808.5 76644.3 moveto
41584.3 75868.5 lineto
stroke
newpath
41584.3 76644.3 moveto
40808.5 75868.5 lineto
stroke
newpath
42840.1 78675.9 moveto
43615.9 77900.1 lineto
stroke
newpath
43615.9 78675.9 moveto
42840.1 77900.1 lineto
stroke
newpath
42840.1 76644.3 moveto
43615.9 75868.5 lineto
stroke
newpath
43615.9 76644.3 moveto
42840.1 75868.5 lineto
stroke
newpath
44871.7 78675.9 moveto
45647.5 77900.1 lineto
stroke
newpath
45647.5 78675.9 moveto
44871.7 77900.1 lineto
stroke
newpath
44871.7 76644.3 moveto
45647.5 75868.5 lineto
stroke
newpath
45647.5 76644.3 moveto
44871.7 75868.5 lineto
stroke
newpath
46903.3 78675.9 moveto
47679.1 77900.1 lineto
stroke
newpath
47679.1 78675.9 moveto
46903.3 77900.1 lineto
stroke
newpath
46903.3 76644.3 moveto
47679.1 75868.5 lineto
stroke
newpath
47679.1 76644.3 moveto
46903.3 75868.5 lineto
stroke
newpath
48934.9 78675.9 moveto
49710.7 77900.1 lineto
stroke
newpath
49710.7 78675.9 moveto
48934.9 77900.1 lineto
stroke
newpath
48934.9 76644.3 moveto
49710.7 75868.5 lineto
stroke
newpath
49710.7 76644.3 moveto
48934.9 75868.5 lineto
stroke
newpath
50966.5 78675.9 moveto
51742.3 77900.1 lineto
stroke
newpath
51742.3 78675.9 moveto
50966.5 77900.1 lineto
stroke
newpath
50966.5 76644.3 moveto
51742.3 75868.5 lineto
stroke
newpath
51742.3 76644.3 moveto
50966.5 75868.5 lineto
stroke
newpath
52998.1 78675.9 moveto
53773.9 77900.1 lineto
stroke
newpath
53773.9 78675.9 moveto
52998.1 77900.1 lineto
stroke
newpath
52998.1 76644.3 moveto
53773.9 75868.5 lineto
stroke
newpath
53773.9 76644.3 moveto
52998.1 75868.5 lineto
stroke
newpath
55029.7 78675.9 moveto
55805.5 77900.1 lineto
stroke
newpath
55805.5 78675.9 moveto
55029.7 77900.1 lineto
stroke
newpath
55029.7 76644.3 moveto
55805.5 75868.5 lineto
stroke
newpath
55805.5 76644.3 moveto
55029.7 75868.5 lineto
stroke
newpath
57061.3 78675.9 moveto
57837.1 77900.1 lineto
stroke
newpath
57837.1 78675.9 moveto
57061.3 77900.1 lineto
stroke
newpath
57061.3 76644.3 moveto
57837.1 75868.5 lineto
stroke
newpath
57837.1 76644.3 moveto
57061.3 75868.5 lineto
stroke
newpath
59092.9 78675.9 moveto
59868.7 77900.1 lineto
stroke
newpath
59868.7 78675.9 moveto
59092.9 77900.1 lineto
stroke
newpath
59092.9 76644.3 moveto
59868.7 75868.5 lineto
stroke
newpath
59868.7 76644.3 moveto
59092.9 75868.5 lineto
stroke
newpath
61124.5 78675.9 moveto
61900.3 77900.1 lineto
stroke
newpath
61900.3 78675.9 moveto
61124.5 77900.1 lineto
stroke
newpath
61124.5 76644.3 moveto
61900.3 75868.5 lineto
stroke
newpath
61900.3 76644.3 moveto
61124.5 75868.5 lineto
stroke
newpath
63156.1 78675.9 moveto
63931.9 77900.1 lineto
stroke
newpath
63931.9 78675.9 moveto
63156.1 77900.1 lineto
stroke
newpath
63156.1 76644.3 moveto
63931.9 75868.5 lineto
stroke
newpath
63931.9 76644.3 moveto
63156.1 75868.5 lineto
stroke
newpath
65187.7 78675.9 moveto
65963.5 77900.1 lineto
stroke
newpath
65963.5 78675.9 moveto
65187.7 77900.1 lineto
stroke
newpath
65187.7 76644.3 moveto
65963.5 75868.5 lineto
stroke
newpath
65963.5 76644.3 moveto
65187.7 75868.5 lineto
stroke
newpath
67219.3 78675.9 moveto
67995.1 77900.1 lineto
stroke
newpath
67995.1 78675.9 moveto
67219.3 77900.1 lineto
stroke
newpath
67219.3 76644.3 moveto
67995.1 75868.5 lineto
stroke
newpath
67995.1 76644.3 moveto
67219.3 75868.5 lineto
stroke
newpath
69250.9 78675.9 moveto
70026.7 77900.1 lineto
stroke
newpath
70026.7 78675.9 moveto
69250.9 77900.1 lineto
stroke
newpath
69250.9 76644.3 moveto
70026.7 75868.5 lineto
stroke
newpath
70026.7 76644.3 moveto
69250.9 75868.5 lineto
stroke
newpath
71282.5 78675.9 moveto
72058.3 77900.1 lineto
stroke
newpath
72058.3 78675.9 moveto
71282.5 77900.1 lineto
stroke
newpath
71282.5 76644.3 moveto
72058.3 75868.5 lineto
stroke
newpath
72058.3 76644.3 moveto
71282.5 75868.5 lineto
stroke
newpath
73314.1 78675.9 moveto
74089.9 77900.1 lineto
stroke
newpath
74089.9 78675.9 moveto
73314.1 77900.1 lineto
stroke
newpath
73314.1 76644.3 moveto
74089.9 75868.5 lineto
stroke
newpath
74089.9 76644.3 moveto
73314.1 75868.5 lineto
stroke
newpath
75345.7 78675.9 moveto
76121.5 77900.1 lineto
stroke
newpath
76121.5 78675.9 moveto
75345.7 77900.1 lineto
stroke
newpath
75345.7 76644.3 moveto
76121.5 75868.5 lineto
stroke
newpath
76121.5 76644.3 moveto
75345.7 75868.5 lineto
stroke
newpath
77377.3 78675.9 moveto
78153.1 77900.1 lineto
stroke
newpath
78153.1 78675.9 moveto
77377.3 77900.1 lineto
stroke
newpath
77377.3 76644.3 moveto
78153.1 75868.5 lineto
stroke
newpath
78153.1 76644.3 moveto
77377.3 75868.5 lineto
stroke
255.95 setlinewidth
35269.6 77272.2 1279.75 cir0
35269.6 38079.9 1279.75 cir0
81660.4 77272.2 1279.75 cir0
81660.4 38079.9 1279.75 cir0
159.968 setlinewidth
78.7405 setlinewidth
0 0 0 setrgbcolor
0 0 0 setrgbcolor
newpath
33244.4 33818.2 moveto
33244.4 34605.6 lineto
33431.9 34605.6 lineto
33544.4 34568.1 lineto
33619.4 34493.1 lineto
33656.9 34418.1 lineto
33694.4 34268.1 lineto
33694.4 34155.6 lineto
33656.9 34005.6 lineto
33619.4 33930.6 lineto
33544.4 33855.7 lineto
33431.9 33818.2 lineto
33244.4 33818.2 lineto
stroke
newpath
34031.8 33818.2 moveto
34031.8 34343.1 lineto
stroke
newpath
34031.8 34193.1 moveto
34069.3 34268.1 lineto
34106.8 34305.6 lineto
34181.8 34343.1 lineto
34256.8 34343.1 lineto
stroke
newpath
34519.3 33818.2 moveto
34519.3 34343.1 lineto
stroke
newpath
34519.3 34605.6 moveto
34481.8 34568.1 lineto
34519.3 34530.6 lineto
34556.8 34568.1 lineto
34519.3 34605.6 lineto
34519.3 34530.6 lineto
stroke
newpath
35006.7 33818.2 moveto
34931.7 33855.7 lineto
34894.2 33930.6 lineto
34894.2 34605.6 lineto
stroke
newpath
35419.2 33818.2 moveto
35344.2 33855.7 lineto
35306.7 33930.6 lineto
35306.7 34605.6 lineto
stroke
newpath
36319 33818.2 moveto
36319 34605.6 lineto
36581.5 34043.1 lineto
36844 34605.6 lineto
36844 33818.2 lineto
stroke
newpath
37556.4 33818.2 moveto
37556.4 34230.6 lineto
37518.9 34305.6 lineto
37443.9 34343.1 lineto
37293.9 34343.1 lineto
37218.9 34305.6 lineto
stroke
newpath
37556.4 33855.7 moveto
37481.4 33818.2 lineto
37293.9 33818.2 lineto
37218.9 33855.7 lineto
37181.4 33930.6 lineto
37181.4 34005.6 lineto
37218.9 34080.6 lineto
37293.9 34118.1 lineto
37481.4 34118.1 lineto
37556.4 34155.6 lineto
stroke
newpath
37931.3 34343.1 moveto
37931.3 33555.7 lineto
stroke
newpath
37931.3 34305.6 moveto
38006.3 34343.1 lineto
38156.3 34343.1 lineto
38231.3 34305.6 lineto
38268.8 34268.1 lineto
38306.3 34193.1 lineto
38306.3 33968.1 lineto
38268.8 33893.1 lineto
38231.3 33855.7 lineto
38156.3 33818.2 lineto
38006.3 33818.2 lineto
37931.3 33855.7 lineto
stroke
newpath
38643.7 33893.1 moveto
38681.2 33855.7 lineto
38643.7 33818.2 lineto
38606.3 33855.7 lineto
38643.7 33893.1 lineto
38643.7 33818.2 lineto
stroke
newpath
38643.7 34305.6 moveto
38681.2 34268.1 lineto
38643.7 34230.6 lineto
38606.3 34268.1 lineto
38643.7 34305.6 lineto
38643.7 34230.6 lineto
stroke
77.5847 setlinewidth
newpath
31454.3 32908.7 moveto
32230.2 32132.9 lineto
stroke
newpath
32230.2 32908.7 moveto
31454.3 32132.9 lineto
stroke
159.968 setlinewidth
78.7405 setlinewidth
0 0 0 setrgbcolor
0 0 0 setrgbcolor
newpath
33394.4 32952 moveto
33469.4 32952 lineto
33544.4 32914.5 lineto
33581.9 32877 lineto
33619.4 32802 lineto
33656.9 32652.1 lineto
33656.9 32464.6 lineto
33619.4 32314.6 lineto
33581.9 32239.6 lineto
33544.4 32202.1 lineto
33469.4 32164.6 lineto
33394.4 32164.6 lineto
33319.4 32202.1 lineto
33281.9 32239.6 lineto
33244.4 32314.6 lineto
33206.9 32464.6 lineto
33206.9 32652.1 lineto
33244.4 32802 lineto
33281.9 32877 lineto
33319.4 32914.5 lineto
33394.4 32952 lineto
stroke
newpath
33994.3 32239.6 moveto
34031.8 32202.1 lineto
33994.3 32164.6 lineto
33956.8 32202.1 lineto
33994.3 32239.6 lineto
33994.3 32164.6 lineto
stroke
newpath
34406.8 32164.6 moveto
34556.8 32164.6 lineto
34631.7 32202.1 lineto
34669.2 32239.6 lineto
34744.2 32352.1 lineto
34781.7 32502.1 lineto
34781.7 32802 lineto
34744.2 32877 lineto
34706.7 32914.5 lineto
34631.7 32952 lineto
34481.8 32952 lineto
34406.8 32914.5 lineto
34369.3 32877 lineto
34331.8 32802 lineto
34331.8 32614.6 lineto
34369.3 32539.6 lineto
34406.8 32502.1 lineto
34481.8 32464.6 lineto
34631.7 32464.6 lineto
34706.7 32502.1 lineto
34744.2 32539.6 lineto
34781.7 32614.6 lineto
stroke
newpath
35044.2 32952 moveto
35569.1 32952 lineto
35231.7 32164.6 lineto
stroke
newpath
36019.1 32952 moveto
36094.1 32952 lineto
36169.1 32914.5 lineto
36206.6 32877 lineto
36244 32802 lineto
36281.5 32652.1 lineto
36281.5 32464.6 lineto
36244 32314.6 lineto
36206.6 32239.6 lineto
36169.1 32202.1 lineto
36094.1 32164.6 lineto
36019.1 32164.6 lineto
35944.1 32202.1 lineto
35906.6 32239.6 lineto
35869.1 32314.6 lineto
35831.6 32464.6 lineto
35831.6 32652.1 lineto
35869.1 32802 lineto
35906.6 32877 lineto
35944.1 32914.5 lineto
36019.1 32952 lineto
stroke
newpath
36619 32164.6 moveto
36619 32689.5 lineto
stroke
newpath
36619 32614.6 moveto
36656.5 32652.1 lineto
36731.5 32689.5 lineto
36844 32689.5 lineto
36919 32652.1 lineto
36956.5 32577.1 lineto
36956.5 32164.6 lineto
stroke
newpath
36956.5 32577.1 moveto
36994 32652.1 lineto
37068.9 32689.5 lineto
37181.4 32689.5 lineto
37256.4 32652.1 lineto
37293.9 32577.1 lineto
37293.9 32164.6 lineto
stroke
newpath
37668.9 32164.6 moveto
37668.9 32689.5 lineto
stroke
newpath
37668.9 32614.6 moveto
37706.4 32652.1 lineto
37781.4 32689.5 lineto
37893.8 32689.5 lineto
37968.8 32652.1 lineto
38006.3 32577.1 lineto
38006.3 32164.6 lineto
stroke
newpath
38006.3 32577.1 moveto
38043.8 32652.1 lineto
38118.8 32689.5 lineto
38231.3 32689.5 lineto
38306.3 32652.1 lineto
38343.8 32577.1 lineto
38343.8 32164.6 lineto
stroke
newpath
39881.1 32989.5 moveto
39206.2 31977.1 lineto
stroke
newpath
40893.5 32952 moveto
40968.5 32952 lineto
41043.4 32914.5 lineto
41080.9 32877 lineto
41118.4 32802 lineto
41155.9 32652.1 lineto
41155.9 32464.6 lineto
41118.4 32314.6 lineto
41080.9 32239.6 lineto
41043.4 32202.1 lineto
40968.5 32164.6 lineto
40893.5 32164.6 lineto
40818.5 32202.1 lineto
40781 32239.6 lineto
40743.5 32314.6 lineto
40706 32464.6 lineto
40706 32652.1 lineto
40743.5 32802 lineto
40781 32877 lineto
40818.5 32914.5 lineto
40893.5 32952 lineto
stroke
newpath
41493.4 32239.6 moveto
41530.9 32202.1 lineto
41493.4 32164.6 lineto
41455.9 32202.1 lineto
41493.4 32239.6 lineto
41493.4 32164.6 lineto
stroke
newpath
42018.3 32952 moveto
42093.3 32952 lineto
42168.3 32914.5 lineto
42205.8 32877 lineto
42243.3 32802 lineto
42280.8 32652.1 lineto
42280.8 32464.6 lineto
42243.3 32314.6 lineto
42205.8 32239.6 lineto
42168.3 32202.1 lineto
42093.3 32164.6 lineto
42018.3 32164.6 lineto
41943.3 32202.1 lineto
41905.8 32239.6 lineto
41868.3 32314.6 lineto
41830.8 32464.6 lineto
41830.8 32652.1 lineto
41868.3 32802 lineto
41905.8 32877 lineto
41943.3 32914.5 lineto
42018.3 32952 lineto
stroke
newpath
42543.3 32952 moveto
43030.7 32952 lineto
42768.2 32652.1 lineto
42880.7 32652.1 lineto
42955.7 32614.6 lineto
42993.2 32577.1 lineto
43030.7 32502.1 lineto
43030.7 32314.6 lineto
42993.2 32239.6 lineto
42955.7 32202.1 lineto
42880.7 32164.6 lineto
42655.7 32164.6 lineto
42580.8 32202.1 lineto
42543.3 32239.6 lineto
stroke
newpath
43480.6 32614.6 moveto
43405.7 32652.1 lineto
43368.2 32689.5 lineto
43330.7 32764.5 lineto
43330.7 32802 lineto
43368.2 32877 lineto
43405.7 32914.5 lineto
43480.6 32952 lineto
43630.6 32952 lineto
43705.6 32914.5 lineto
43743.1 32877 lineto
43780.6 32802 lineto
43780.6 32764.5 lineto
43743.1 32689.5 lineto
43705.6 32652.1 lineto
43630.6 32614.6 lineto
43480.6 32614.6 lineto
43405.7 32577.1 lineto
43368.2 32539.6 lineto
43330.7 32464.6 lineto
43330.7 32314.6 lineto
43368.2 32239.6 lineto
43405.7 32202.1 lineto
43480.6 32164.6 lineto
43630.6 32164.6 lineto
43705.6 32202.1 lineto
43743.1 32239.6 lineto
43780.6 32314.6 lineto
43780.6 32464.6 lineto
43743.1 32539.6 lineto
43705.6 32577.1 lineto
43630.6 32614.6 lineto
stroke
newpath
44080.6 32877 moveto
44118.1 32914.5 lineto
44193.1 32952 lineto
44380.5 32952 lineto
44455.5 32914.5 lineto
44493 32877 lineto
44530.5 32802 lineto
44530.5 32727 lineto
44493 32614.6 lineto
44043.1 32164.6 lineto
44530.5 32164.6 lineto
stroke
newpath
44830.5 32952 moveto
44830.5 32802 lineto
stroke
newpath
45130.4 32952 moveto
45130.4 32802 lineto
stroke
newpath
46292.8 31864.7 moveto
46255.3 31902.1 lineto
46180.3 32014.6 lineto
46142.8 32089.6 lineto
46105.3 32202.1 lineto
46067.8 32389.6 lineto
46067.8 32539.6 lineto
46105.3 32727 lineto
46142.8 32839.5 lineto
46180.3 32914.5 lineto
46255.3 33027 lineto
46292.8 33064.5 lineto
stroke
newpath
46930.2 32689.5 moveto
46930.2 32164.6 lineto
stroke
newpath
46742.7 32989.5 moveto
46555.3 32427.1 lineto
47042.7 32427.1 lineto
stroke
newpath
47492.6 32952 moveto
47567.6 32952 lineto
47642.6 32914.5 lineto
47680.1 32877 lineto
47717.6 32802 lineto
47755.1 32652.1 lineto
47755.1 32464.6 lineto
47717.6 32314.6 lineto
47680.1 32239.6 lineto
47642.6 32202.1 lineto
47567.6 32164.6 lineto
47492.6 32164.6 lineto
47417.6 32202.1 lineto
47380.2 32239.6 lineto
47342.7 32314.6 lineto
47305.2 32464.6 lineto
47305.2 32652.1 lineto
47342.7 32802 lineto
47380.2 32877 lineto
47417.6 32914.5 lineto
47492.6 32952 lineto
stroke
newpath
48692.5 32164.6 moveto
48692.5 32952 lineto
stroke
newpath
49029.9 32164.6 moveto
49029.9 32577.1 lineto
48992.5 32652.1 lineto
48917.5 32689.5 lineto
48805 32689.5 lineto
48730 32652.1 lineto
48692.5 32614.6 lineto
stroke
newpath
49517.4 32164.6 moveto
49442.4 32202.1 lineto
49404.9 32239.6 lineto
49367.4 32314.6 lineto
49367.4 32539.6 lineto
49404.9 32614.6 lineto
49442.4 32652.1 lineto
49517.4 32689.5 lineto
49629.9 32689.5 lineto
49704.9 32652.1 lineto
49742.4 32614.6 lineto
49779.9 32539.6 lineto
49779.9 32314.6 lineto
49742.4 32239.6 lineto
49704.9 32202.1 lineto
49629.9 32164.6 lineto
49517.4 32164.6 lineto
stroke
newpath
50229.8 32164.6 moveto
50154.8 32202.1 lineto
50117.3 32277.1 lineto
50117.3 32952 lineto
stroke
newpath
50829.7 32202.1 moveto
50754.7 32164.6 lineto
50604.8 32164.6 lineto
50529.8 32202.1 lineto
50492.3 32277.1 lineto
50492.3 32577.1 lineto
50529.8 32652.1 lineto
50604.8 32689.5 lineto
50754.7 32689.5 lineto
50829.7 32652.1 lineto
50867.2 32577.1 lineto
50867.2 32502.1 lineto
50492.3 32427.1 lineto
stroke
newpath
51167.2 32202.1 moveto
51242.2 32164.6 lineto
51392.2 32164.6 lineto
51467.1 32202.1 lineto
51504.6 32277.1 lineto
51504.6 32314.6 lineto
51467.1 32389.6 lineto
51392.2 32427.1 lineto
51279.7 32427.1 lineto
51204.7 32464.6 lineto
51167.2 32539.6 lineto
51167.2 32577.1 lineto
51204.7 32652.1 lineto
51279.7 32689.5 lineto
51392.2 32689.5 lineto
51467.1 32652.1 lineto
stroke
newpath
51767.1 31864.7 moveto
51804.6 31902.1 lineto
51879.6 32014.6 lineto
51917.1 32089.6 lineto
51954.6 32202.1 lineto
51992.1 32389.6 lineto
51992.1 32539.6 lineto
51954.6 32727 lineto
51917.1 32839.5 lineto
51879.6 32914.5 lineto
51804.6 33027 lineto
51767.1 33064.5 lineto
stroke
newpath
53191.9 31864.7 moveto
53154.4 31902.1 lineto
53079.4 32014.6 lineto
53041.9 32089.6 lineto
53004.5 32202.1 lineto
52967 32389.6 lineto
52967 32539.6 lineto
53004.5 32727 lineto
53041.9 32839.5 lineto
53079.4 32914.5 lineto
53154.4 33027 lineto
53191.9 33064.5 lineto
stroke
newpath
53491.9 32689.5 moveto
53491.9 32164.6 lineto
stroke
newpath
53491.9 32614.6 moveto
53529.4 32652.1 lineto
53604.4 32689.5 lineto
53716.9 32689.5 lineto
53791.9 32652.1 lineto
53829.3 32577.1 lineto
53829.3 32164.6 lineto
stroke
newpath
54316.8 32164.6 moveto
54241.8 32202.1 lineto
54204.3 32239.6 lineto
54166.8 32314.6 lineto
54166.8 32539.6 lineto
54204.3 32614.6 lineto
54241.8 32652.1 lineto
54316.8 32689.5 lineto
54429.3 32689.5 lineto
54504.3 32652.1 lineto
54541.8 32614.6 lineto
54579.3 32539.6 lineto
54579.3 32314.6 lineto
54541.8 32239.6 lineto
54504.3 32202.1 lineto
54429.3 32164.6 lineto
54316.8 32164.6 lineto
stroke
newpath
54804.2 32689.5 moveto
55104.2 32689.5 lineto
stroke
newpath
54916.7 32952 moveto
54916.7 32277.1 lineto
54954.2 32202.1 lineto
55029.2 32164.6 lineto
55104.2 32164.6 lineto
stroke
newpath
55966.6 32689.5 moveto
55966.6 31902.1 lineto
stroke
newpath
55966.6 32652.1 moveto
56041.6 32689.5 lineto
56191.6 32689.5 lineto
56266.5 32652.1 lineto
56304 32614.6 lineto
56341.5 32539.6 lineto
56341.5 32314.6 lineto
56304 32239.6 lineto
56266.5 32202.1 lineto
56191.6 32164.6 lineto
56041.6 32164.6 lineto
55966.6 32202.1 lineto
stroke
newpath
56791.5 32164.6 moveto
56716.5 32202.1 lineto
56679 32277.1 lineto
56679 32952 lineto
stroke
newpath
57428.9 32164.6 moveto
57428.9 32577.1 lineto
57391.4 32652.1 lineto
57316.4 32689.5 lineto
57166.4 32689.5 lineto
57091.4 32652.1 lineto
stroke
newpath
57428.9 32202.1 moveto
57353.9 32164.6 lineto
57166.4 32164.6 lineto
57091.4 32202.1 lineto
57053.9 32277.1 lineto
57053.9 32352.1 lineto
57091.4 32427.1 lineto
57166.4 32464.6 lineto
57353.9 32464.6 lineto
57428.9 32502.1 lineto
stroke
newpath
57691.4 32689.5 moveto
57991.3 32689.5 lineto
stroke
newpath
57803.8 32952 moveto
57803.8 32277.1 lineto
57841.3 32202.1 lineto
57916.3 32164.6 lineto
57991.3 32164.6 lineto
stroke
newpath
58553.8 32202.1 moveto
58478.8 32164.6 lineto
58328.8 32164.6 lineto
58253.8 32202.1 lineto
58216.3 32277.1 lineto
58216.3 32577.1 lineto
58253.8 32652.1 lineto
58328.8 32689.5 lineto
58478.8 32689.5 lineto
58553.8 32652.1 lineto
58591.3 32577.1 lineto
58591.3 32502.1 lineto
58216.3 32427.1 lineto
stroke
newpath
59266.2 32164.6 moveto
59266.2 32952 lineto
stroke
newpath
59266.2 32202.1 moveto
59191.2 32164.6 lineto
59041.2 32164.6 lineto
58966.2 32202.1 lineto
58928.7 32239.6 lineto
58891.2 32314.6 lineto
58891.2 32539.6 lineto
58928.7 32614.6 lineto
58966.2 32652.1 lineto
59041.2 32689.5 lineto
59191.2 32689.5 lineto
59266.2 32652.1 lineto
stroke
newpath
59566.1 31864.7 moveto
59603.6 31902.1 lineto
59678.6 32014.6 lineto
59716.1 32089.6 lineto
59753.6 32202.1 lineto
59791.1 32389.6 lineto
59791.1 32539.6 lineto
59753.6 32727 lineto
59716.1 32839.5 lineto
59678.6 32914.5 lineto
59603.6 33027 lineto
59566.1 33064.5 lineto
stroke
78.7397 setlinewidth
31836.5 31272.5 393.701 cir0
159.968 setlinewidth
78.7405 setlinewidth
0 0 0 setrgbcolor
0 0 0 setrgbcolor
newpath
33169.4 31703.7 moveto
33656.9 31703.7 lineto
33394.4 31403.8 lineto
33506.9 31403.8 lineto
33581.9 31366.3 lineto
33619.4 31328.8 lineto
33656.9 31253.8 lineto
33656.9 31066.3 lineto
33619.4 30991.3 lineto
33581.9 30953.8 lineto
33506.9 30916.3 lineto
33281.9 30916.3 lineto
33206.9 30953.8 lineto
33169.4 30991.3 lineto
stroke
newpath
33994.3 30991.3 moveto
34031.8 30953.8 lineto
33994.3 30916.3 lineto
33956.8 30953.8 lineto
33994.3 30991.3 lineto
33994.3 30916.3 lineto
stroke
newpath
34331.8 31628.7 moveto
34369.3 31666.2 lineto
34444.3 31703.7 lineto
34631.7 31703.7 lineto
34706.7 31666.2 lineto
34744.2 31628.7 lineto
34781.7 31553.7 lineto
34781.7 31478.8 lineto
34744.2 31366.3 lineto
34294.3 30916.3 lineto
34781.7 30916.3 lineto
stroke
newpath
35269.2 31703.7 moveto
35344.2 31703.7 lineto
35419.2 31666.2 lineto
35456.6 31628.7 lineto
35494.1 31553.7 lineto
35531.6 31403.8 lineto
35531.6 31216.3 lineto
35494.1 31066.3 lineto
35456.6 30991.3 lineto
35419.2 30953.8 lineto
35344.2 30916.3 lineto
35269.2 30916.3 lineto
35194.2 30953.8 lineto
35156.7 30991.3 lineto
35119.2 31066.3 lineto
35081.7 31216.3 lineto
35081.7 31403.8 lineto
35119.2 31553.7 lineto
35156.7 31628.7 lineto
35194.2 31666.2 lineto
35269.2 31703.7 lineto
stroke
newpath
36019.1 31703.7 moveto
36094.1 31703.7 lineto
36169.1 31666.2 lineto
36206.6 31628.7 lineto
36244 31553.7 lineto
36281.5 31403.8 lineto
36281.5 31216.3 lineto
36244 31066.3 lineto
36206.6 30991.3 lineto
36169.1 30953.8 lineto
36094.1 30916.3 lineto
36019.1 30916.3 lineto
35944.1 30953.8 lineto
35906.6 30991.3 lineto
35869.1 31066.3 lineto
35831.6 31216.3 lineto
35831.6 31403.8 lineto
35869.1 31553.7 lineto
35906.6 31628.7 lineto
35944.1 31666.2 lineto
36019.1 31703.7 lineto
stroke
newpath
36619 30916.3 moveto
36619 31441.3 lineto
stroke
newpath
36619 31366.3 moveto
36656.5 31403.8 lineto
36731.5 31441.3 lineto
36844 31441.3 lineto
36919 31403.8 lineto
36956.5 31328.8 lineto
36956.5 30916.3 lineto
stroke
newpath
36956.5 31328.8 moveto
36994 31403.8 lineto
37068.9 31441.3 lineto
37181.4 31441.3 lineto
37256.4 31403.8 lineto
37293.9 31328.8 lineto
37293.9 30916.3 lineto
stroke
newpath
37668.9 30916.3 moveto
37668.9 31441.3 lineto
stroke
newpath
37668.9 31366.3 moveto
37706.4 31403.8 lineto
37781.4 31441.3 lineto
37893.8 31441.3 lineto
37968.8 31403.8 lineto
38006.3 31328.8 lineto
38006.3 30916.3 lineto
stroke
newpath
38006.3 31328.8 moveto
38043.8 31403.8 lineto
38118.8 31441.3 lineto
38231.3 31441.3 lineto
38306.3 31403.8 lineto
38343.8 31328.8 lineto
38343.8 30916.3 lineto
stroke
newpath
39881.1 31741.2 moveto
39206.2 30728.8 lineto
stroke
newpath
40893.5 31703.7 moveto
40968.5 31703.7 lineto
41043.4 31666.2 lineto
41080.9 31628.7 lineto
41118.4 31553.7 lineto
41155.9 31403.8 lineto
41155.9 31216.3 lineto
41118.4 31066.3 lineto
41080.9 30991.3 lineto
41043.4 30953.8 lineto
40968.5 30916.3 lineto
40893.5 30916.3 lineto
40818.5 30953.8 lineto
40781 30991.3 lineto
40743.5 31066.3 lineto
40706 31216.3 lineto
40706 31403.8 lineto
40743.5 31553.7 lineto
40781 31628.7 lineto
40818.5 31666.2 lineto
40893.5 31703.7 lineto
stroke
newpath
41493.4 30991.3 moveto
41530.9 30953.8 lineto
41493.4 30916.3 lineto
41455.9 30953.8 lineto
41493.4 30991.3 lineto
41493.4 30916.3 lineto
stroke
newpath
42280.8 30916.3 moveto
41830.8 30916.3 lineto
stroke
newpath
42055.8 30916.3 moveto
42055.8 31703.7 lineto
41980.8 31591.2 lineto
41905.8 31516.3 lineto
41830.8 31478.8 lineto
stroke
newpath
42580.8 31628.7 moveto
42618.2 31666.2 lineto
42693.2 31703.7 lineto
42880.7 31703.7 lineto
42955.7 31666.2 lineto
42993.2 31628.7 lineto
43030.7 31553.7 lineto
43030.7 31478.8 lineto
42993.2 31366.3 lineto
42543.3 30916.3 lineto
43030.7 30916.3 lineto
stroke
newpath
43705.6 31703.7 moveto
43555.6 31703.7 lineto
43480.6 31666.2 lineto
43443.1 31628.7 lineto
43368.2 31516.3 lineto
43330.7 31366.3 lineto
43330.7 31066.3 lineto
43368.2 30991.3 lineto
43405.7 30953.8 lineto
43480.6 30916.3 lineto
43630.6 30916.3 lineto
43705.6 30953.8 lineto
43743.1 30991.3 lineto
43780.6 31066.3 lineto
43780.6 31253.8 lineto
43743.1 31328.8 lineto
43705.6 31366.3 lineto
43630.6 31403.8 lineto
43480.6 31403.8 lineto
43405.7 31366.3 lineto
43368.2 31328.8 lineto
43330.7 31253.8 lineto
stroke
newpath
44268 31703.7 moveto
44343 31703.7 lineto
44418 31666.2 lineto
44455.5 31628.7 lineto
44493 31553.7 lineto
44530.5 31403.8 lineto
44530.5 31216.3 lineto
44493 31066.3 lineto
44455.5 30991.3 lineto
44418 30953.8 lineto
44343 30916.3 lineto
44268 30916.3 lineto
44193.1 30953.8 lineto
44155.6 30991.3 lineto
44118.1 31066.3 lineto
44080.6 31216.3 lineto
44080.6 31403.8 lineto
44118.1 31553.7 lineto
44155.6 31628.7 lineto
44193.1 31666.2 lineto
44268 31703.7 lineto
stroke
newpath
44830.5 31703.7 moveto
44830.5 31553.7 lineto
stroke
newpath
45130.4 31703.7 moveto
45130.4 31553.7 lineto
stroke
newpath
46292.8 30616.4 moveto
46255.3 30653.9 lineto
46180.3 30766.3 lineto
46142.8 30841.3 lineto
46105.3 30953.8 lineto
46067.8 31141.3 lineto
46067.8 31291.3 lineto
46105.3 31478.8 lineto
46142.8 31591.2 lineto
46180.3 31666.2 lineto
46255.3 31778.7 lineto
46292.8 31816.2 lineto
stroke
newpath
46930.2 31441.3 moveto
46930.2 30916.3 lineto
stroke
newpath
46742.7 31741.2 moveto
46555.3 31178.8 lineto
47042.7 31178.8 lineto
stroke
newpath
47942.6 30916.3 moveto
47942.6 31703.7 lineto
stroke
newpath
48280 30916.3 moveto
48280 31328.8 lineto
48242.5 31403.8 lineto
48167.6 31441.3 lineto
48055.1 31441.3 lineto
47980.1 31403.8 lineto
47942.6 31366.3 lineto
stroke
newpath
48767.5 30916.3 moveto
48692.5 30953.8 lineto
48655 30991.3 lineto
48617.5 31066.3 lineto
48617.5 31291.3 lineto
48655 31366.3 lineto
48692.5 31403.8 lineto
48767.5 31441.3 lineto
48880 31441.3 lineto
48955 31403.8 lineto
48992.5 31366.3 lineto
49029.9 31291.3 lineto
49029.9 31066.3 lineto
48992.5 30991.3 lineto
48955 30953.8 lineto
48880 30916.3 lineto
48767.5 30916.3 lineto
stroke
newpath
49479.9 30916.3 moveto
49404.9 30953.8 lineto
49367.4 31028.8 lineto
49367.4 31703.7 lineto
stroke
newpath
50079.8 30953.8 moveto
50004.8 30916.3 lineto
49854.8 30916.3 lineto
49779.9 30953.8 lineto
49742.4 31028.8 lineto
49742.4 31328.8 lineto
49779.9 31403.8 lineto
49854.8 31441.3 lineto
50004.8 31441.3 lineto
50079.8 31403.8 lineto
50117.3 31328.8 lineto
50117.3 31253.8 lineto
49742.4 31178.8 lineto
stroke
newpath
50417.3 30953.8 moveto
50492.3 30916.3 lineto
50642.2 30916.3 lineto
50717.2 30953.8 lineto
50754.7 31028.8 lineto
50754.7 31066.3 lineto
50717.2 31141.3 lineto
50642.2 31178.8 lineto
50529.8 31178.8 lineto
50454.8 31216.3 lineto
50417.3 31291.3 lineto
50417.3 31328.8 lineto
50454.8 31403.8 lineto
50529.8 31441.3 lineto
50642.2 31441.3 lineto
50717.2 31403.8 lineto
stroke
newpath
51017.2 30616.4 moveto
51054.7 30653.9 lineto
51129.7 30766.3 lineto
51167.2 30841.3 lineto
51204.7 30953.8 lineto
51242.2 31141.3 lineto
51242.2 31291.3 lineto
51204.7 31478.8 lineto
51167.2 31591.2 lineto
51129.7 31666.2 lineto
51054.7 31778.7 lineto
51017.2 31816.2 lineto
stroke
newpath
52442 30616.4 moveto
52404.5 30653.9 lineto
52329.5 30766.3 lineto
52292 30841.3 lineto
52254.5 30953.8 lineto
52217 31141.3 lineto
52217 31291.3 lineto
52254.5 31478.8 lineto
52292 31591.2 lineto
52329.5 31666.2 lineto
52404.5 31778.7 lineto
52442 31816.2 lineto
stroke
newpath
52742 31441.3 moveto
52742 30916.3 lineto
stroke
newpath
52742 31366.3 moveto
52779.5 31403.8 lineto
52854.5 31441.3 lineto
52967 31441.3 lineto
53041.9 31403.8 lineto
53079.4 31328.8 lineto
53079.4 30916.3 lineto
stroke
newpath
53566.9 30916.3 moveto
53491.9 30953.8 lineto
53454.4 30991.3 lineto
53416.9 31066.3 lineto
53416.9 31291.3 lineto
53454.4 31366.3 lineto
53491.9 31403.8 lineto
53566.9 31441.3 lineto
53679.4 31441.3 lineto
53754.4 31403.8 lineto
53791.9 31366.3 lineto
53829.3 31291.3 lineto
53829.3 31066.3 lineto
53791.9 30991.3 lineto
53754.4 30953.8 lineto
53679.4 30916.3 lineto
53566.9 30916.3 lineto
stroke
newpath
54054.3 31441.3 moveto
54354.3 31441.3 lineto
stroke
newpath
54166.8 31703.7 moveto
54166.8 31028.8 lineto
54204.3 30953.8 lineto
54279.3 30916.3 lineto
54354.3 30916.3 lineto
stroke
newpath
55216.7 31441.3 moveto
55216.7 30653.9 lineto
stroke
newpath
55216.7 31403.8 moveto
55291.7 31441.3 lineto
55441.6 31441.3 lineto
55516.6 31403.8 lineto
55554.1 31366.3 lineto
55591.6 31291.3 lineto
55591.6 31066.3 lineto
55554.1 30991.3 lineto
55516.6 30953.8 lineto
55441.6 30916.3 lineto
55291.7 30916.3 lineto
55216.7 30953.8 lineto
stroke
newpath
56041.6 30916.3 moveto
55966.6 30953.8 lineto
55929.1 31028.8 lineto
55929.1 31703.7 lineto
stroke
newpath
56679 30916.3 moveto
56679 31328.8 lineto
56641.5 31403.8 lineto
56566.5 31441.3 lineto
56416.5 31441.3 lineto
56341.5 31403.8 lineto
stroke
newpath
56679 30953.8 moveto
56604 30916.3 lineto
56416.5 30916.3 lineto
56341.5 30953.8 lineto
56304 31028.8 lineto
56304 31103.8 lineto
56341.5 31178.8 lineto
56416.5 31216.3 lineto
56604 31216.3 lineto
56679 31253.8 lineto
stroke
newpath
56941.5 31441.3 moveto
57241.4 31441.3 lineto
stroke
newpath
57053.9 31703.7 moveto
57053.9 31028.8 lineto
57091.4 30953.8 lineto
57166.4 30916.3 lineto
57241.4 30916.3 lineto
stroke
newpath
57803.8 30953.8 moveto
57728.9 30916.3 lineto
57578.9 30916.3 lineto
57503.9 30953.8 lineto
57466.4 31028.8 lineto
57466.4 31328.8 lineto
57503.9 31403.8 lineto
57578.9 31441.3 lineto
57728.9 31441.3 lineto
57803.8 31403.8 lineto
57841.3 31328.8 lineto
57841.3 31253.8 lineto
57466.4 31178.8 lineto
stroke
newpath
58516.3 30916.3 moveto
58516.3 31703.7 lineto
stroke
newpath
58516.3 30953.8 moveto
58441.3 30916.3 lineto
58291.3 30916.3 lineto
58216.3 30953.8 lineto
58178.8 30991.3 lineto
58141.3 31066.3 lineto
58141.3 31291.3 lineto
58178.8 31366.3 lineto
58216.3 31403.8 lineto
58291.3 31441.3 lineto
58441.3 31441.3 lineto
58516.3 31403.8 lineto
stroke
newpath
58816.2 30616.4 moveto
58853.7 30653.9 lineto
58928.7 30766.3 lineto
58966.2 30841.3 lineto
59003.7 30953.8 lineto
59041.2 31141.3 lineto
59041.2 31291.3 lineto
59003.7 31478.8 lineto
58966.2 31591.2 lineto
58928.7 31666.2 lineto
58853.7 31778.7 lineto
58816.2 31816.2 lineto
stroke
showpage
grestore
%%EOF
