M48
; DRILL file {KiCad 5.99.0-unknown-14cba9723f~116~ubuntu20.10.1} date Thu Feb 18 08:56:57 2021
; FORMAT={-:-/ absolute / metric / decimal}
; #@! TF.CreationDate,2021-02-18T08:56:57+01:00
; #@! TF.GenerationSoftware,Kicad,Pcbnew,5.99.0-unknown-14cba9723f~116~ubuntu20.10.1
; #@! TF.FileFunction,NonPlated,1,2,NPTH
FMAT,2
METRIC
T1C0.970
T2C3.200
%
G90
G05
T1
X8.37Y53.77
X8.37Y51.23
X10.91Y53.77
X10.91Y51.23
X13.45Y53.77
X13.45Y51.23
X15.99Y53.77
X15.99Y51.23
X18.53Y53.77
X18.53Y51.23
X21.07Y53.77
X21.07Y51.23
X23.61Y53.77
X23.61Y51.23
X26.15Y53.77
X26.15Y51.23
X28.69Y53.77
X28.69Y51.23
X31.23Y53.77
X31.23Y51.23
X33.77Y53.77
X33.77Y51.23
X36.31Y53.77
X36.31Y51.23
X38.85Y53.77
X38.85Y51.23
X41.39Y53.77
X41.39Y51.23
X43.93Y53.77
X43.93Y51.23
X46.47Y53.77
X46.47Y51.23
X49.01Y53.77
X49.01Y51.23
X51.55Y53.77
X51.55Y51.23
X54.09Y53.77
X54.09Y51.23
X56.63Y53.77
X56.63Y51.23
T2
X3.5Y52.5
X3.5Y3.5
X61.5Y52.5
X61.5Y3.5
T0
M30
